id;agent_id;nonce;time_creation;time_edged;weight;confidence;x;y
0;0;0;1681323642905;1681323642905;443;1.00;0.00;0.00
1;4;5557016;1681323642905;1681323653254;58;0.92;29.82;-4.48
2;2;4153749;1681323642905;1681323653254;10;0.33;29.82;-1.65
3;3;443782;1681323642905;1681323652905;24;0.60;28.82;-3.70
4;0;5572239;1681323642905;1681323653254;19;0.42;29.82;0.18
5;1;366598;1681323642905;1681323643252;52;0.93;1.00;-0.50
6;1;44264;1681323643252;1681323643296;39;0.71;1.13;-0.84
7;1;7418696;1681323643296;1681323653254;38;0.76;29.82;-0.56
8;3;17444465;1681323643332;1681323663255;43;0.86;58.64;-3.66
9;2;7662745;1681323646786;1681323662771;14;0.32;57.25;-1.62
10;4;4658002;1681323647944;1681323657959;44;0.86;43.38;-4.70
11;0;355498;1681323647958;1681323653254;6;0.22;29.82;0.98
12;0;2243970;1681323648239;1681323657959;16;0.43;43.38;0.24
13;1;2136318;1681323649952;1681323658240;28;0.67;44.19;-0.66
14;0;676465;1681323650198;1681323658240;25;0.66;44.19;0.58
15;0;593957;1681323650778;1681323662012;28;0.41;55.06;0.17
16;0;1758567;1681323651271;1681323662012;30;0.38;55.06;0.05
17;1;171257;1681323651871;1681323660198;14;0.44;49.84;-1.14
18;4;820677;1681323652010;1681323659953;11;0.27;49.13;-5.14
19;1;17450040;1681323652030;1681323673174;15;0.43;87.23;-0.39
20;4;5785329;1681323652771;1681323662771;12;0.40;57.25;-4.20
21;0;1399981;1681323653254;1681323663728;11;0.29;60.01;0.62
22;2;1133308;1681323653727;1681323663728;26;0.62;60.01;-2.13
23;4;13303965;1681323657335;1681323677035;14;0.52;98.35;-4.64
24;0;12558046;1681323657960;1681323677035;8;0.21;98.35;0.41
25;2;4491469;1681323658240;1681323668254;27;0.67;73.05;-2.01
26;3;680291;1681323658252;1681323668254;5;0.22;73.05;-3.39
27;3;1152883;1681323662012;1681323668254;11;0.30;73.05;-3.34
28;2;347103;1681323662206;1681323672013;9;0.39;83.88;-1.67
29;2;1166066;1681323662772;1681323673174;5;0.18;87.23;-2.07
30;3;3344101;1681323663173;1681323673174;18;0.38;87.23;-3.18
31;2;4831408;1681323663937;1681323677035;11;0.31;98.35;-2.22
32;3;4533748;1681323666265;1681323677035;1;0.03;98.35;-3.66
33;1;247849;1681323667034;1681323677035;15;0.50;98.35;-0.49
34;1;1487003;1681323668254;1681323679387;3;0.12;105.13;-0.91
35;2;1513790;1681323668334;1681323679387;4;0.14;105.13;-2.50
36;4;793173;1681323669215;1681323679387;4;0.05;105.13;-4.59
37;0;3824144;1681323669386;1681323679387;1;0.03;105.13;0.95
38;3;14481411;1681323670362;1681323687035;3;0.05;127.18;-3.66
39;4;169780;1681323672207;1681323683174;6;0.22;116.05;-4.39
40;0;1179689;1681323673174;1681323683174;7;0.12;116.05;0.46
41;1;27324;1681323673174;1681323683174;8;0.39;116.05;-1.16
42;2;3562124;1681323673174;1681323683174;6;0.12;116.05;-2.51
43;4;10102110;1681323677035;1681323690078;4;0.22;135.94;-4.97
44;0;1324340;1681323677035;1681323687035;4;0.16;127.18;0.20
45;2;1895497;1681323677035;1681323687035;1;0.03;127.18;-1.61
46;1;6534127;1681323677035;1681323687035;10;0.31;127.18;-0.67
47;0;8711697;1681323679387;1681323690078;5;0.09;135.94;0.73
48;2;1345319;1681323679387;1681323690078;9;0.46;135.94;-1.88
49;3;1775628;1681323680077;1681323690078;4;0.17;135.94;-3.19
50;1;5783229;1681323682346;1681323695272;7;0.21;150.91;-1.21
51;2;1053619;1681323683174;1681323695272;1;0.00;150.91;-1.79
52;3;8038706;1681323683174;1681323695272;5;0.12;150.91;-3.45
53;4;3653072;1681323685270;1681323695272;1;0.03;150.91;-5.01
54;0;10660681;1681323686593;1681323705029;2;0.04;179.03;0.75
55;2;9241203;1681323687035;1681323700040;2;0.08;164.65;-2.07
56;1;4135997;1681323687161;1681323700040;1;0.13;164.65;-1.05
57;4;2322576;1681323688340;1681323700040;2;0.09;164.65;-4.99
58;3;665900;1681323690039;1681323700040;2;0.10;164.65;-3.15
59;4;2647548;1681323690282;1681323700661;1;0.08;166.44;-4.77
60;3;7665497;1681323690607;1681323705029;2;0.10;179.03;-3.21
61;1;7548375;1681323690661;1681323705029;5;0.23;179.03;-1.30
62;2;1490877;1681323695028;1681323705029;1;0.06;179.03;-2.05
63;4;363982;1681323695272;1681323707094;2;0.05;184.98;-4.27
64;0;317101;1681323695691;1681323707145;2;0.05;185.13;0.29
65;2;1092233;1681323696354;1681323708574;1;0.02;189.24;-2.26
66;1;2353162;1681323697093;1681323705273;1;0.04;179.73;-0.73
67;3;5837243;1681323697144;1681323708574;1;0.10;189.24;-3.77
68;1;2744975;1681323698573;1681323710042;1;0.08;193.48;-1.13
69;4;875172;1681323700040;1681323710042;1;0.04;193.48;-4.92
70;0;9326368;1681323700040;1681323711125;1;0.09;196.60;0.85
71;2;8895443;1681323700040;1681323711124;1;0.05;196.59;-1.73
72;1;7044954;1681323700403;1681323710042;1;0.05;193.48;-0.45
73;4;2608639;1681323700841;1681323711126;1;0.04;196.60;-4.36
74;3;672100;1681323701123;1681323711125;1;0.10;196.60;-3.06
