id;agent_id;nonce;time_creation;time_edged;weight;confidence;x;y
0;0;0;1683104882848;1683104882848;110681020;1.00;0.00;0.00
1;0;129523;1683104882848;1683104883095;17363600;1.00;1.00;0.83
2;1;1530221;1683104882849;1683104892849;6643135;1.00;40.49;-0.70
3;2;6129109;1683104882849;1683104898244;29755;1.00;62.33;-2.57
4;3;5072464;1683104882849;1683104893096;17325017;1.00;41.49;-3.19
5;0;317678;1683104883095;1683104883693;28057324;1.00;3.42;0.40
6;0;2442332;1683104883693;1683104893096;34662006;1.00;41.49;0.69
7;1;8349775;1683104885750;1683104905275;7385;1.00;90.80;-0.88
8;0;2369351;1683104888243;1683104893694;6629937;1.00;43.91;0.74
9;3;3291412;1683104891971;1683104905306;6618095;1.00;90.92;-3.04
10;0;2170747;1683104892306;1683104905275;10699538;1.00;90.80;0.97
11;2;355025;1683104894104;1683104898244;17325016;1.00;62.33;-2.12
12;2;253044;1683104894767;1683104904106;3014;1.00;86.06;-1.69
13;2;13177;1683104895274;1683104904768;17333844;1.00;88.74;-2.27
14;2;3276176;1683104895305;1683104906503;1699;1.00;95.77;-1.87
15;0;3808205;1683104896501;1683104906503;8829;1.00;95.77;0.37
16;3;987704;1683104898310;1683104913220;3014;1.00;122.96;-3.34
17;1;2887712;1683104900918;1683104913220;7384;1.00;122.96;-0.83
18;2;3990230;1683104901317;1683104915276;6618094;1.00;131.28;-1.91
19;0;157017;1683104903219;1683104908311;8827;1.00;103.09;0.85
20;3;5021703;1683104904106;1683104915901;17317631;1.00;133.81;-3.50
21;0;1251712;1683104905275;1683104913220;8828;1.00;122.96;0.97
22;1;1547543;1683104905901;1683104915901;8828;1.00;133.81;-0.82
23;0;5074572;1683104907671;1683104923528;10699537;1.00;164.69;0.87
24;2;3205215;1683104908495;1683104915901;7384;1.00;133.81;-2.01
25;1;9577157;1683104908840;1683104927093;6618092;1.00;179.13;-1.17
26;3;1953963;1683104913527;1683104918496;6618093;1.00;144.32;-3.67
27;2;19386345;1683104914487;1683104952852;7709;1.00;283.41;-2.06
28;3;893581;1683104917092;1683104923528;7383;1.00;164.69;-3.80
29;0;18806346;1683104917110;1683104952852;3834;1.00;283.41;0.12
30;3;10591987;1683104918755;1683104937758;8827;1.00;222.30;-3.32
31;1;9180610;1683104926426;1683104942579;8826;1.00;241.82;-0.69
32;3;3756842;1683104937758;1683104944279;1699;1.00;248.70;-3.35
33;1;1128811;1683104942579;1683104952852;1314;1.00;283.41;-1.14
34;4;816489;1683104942851;1683104947758;6396;1.00;262.79;-4.31
35;3;4209239;1683104944279;1683104954586;1520;1.00;290.43;-3.57
36;1;3580770;1683104944585;1683104959393;1698;1.00;309.89;-0.34
37;4;5902977;1683104947852;1683105031697;367982;0.90;602.62;-4.34
38;4;3710101;1683104947852;1683105020296;2522540;1.00;556.46;-5.17
39;4;3030549;1683104947852;1683105020293;4081445;1.00;556.45;-4.68
40;4;1825054;1683104949334;1683105020292;6603986;1.00;556.44;-4.88
41;2;1151225;1683104949393;1683104959393;4991;1.00;309.89;-2.11
42;0;2953564;1683104950688;1683104963296;1313;1.00;325.70;0.61
43;1;8388583;1683104951102;1683104969993;254;0.90;352.81;-0.33
44;2;3653852;1683104951762;1683104963296;1519;1.00;325.70;-2.08
45;3;605272;1683104952063;1683104959393;6395;1.00;309.89;-2.95
46;4;2414091;1683104953104;1683105024192;963492;1.00;572.23;-4.45
47;3;743698;1683104953295;1683104962064;871;1.00;320.71;-3.59
48;4;6206972;1683104953945;1683105035904;86868;0.90;619.65;-4.68
49;3;4686697;1683104954848;1683104969993;3254;1.00;352.81;-3.75
50;4;869790;1683104955427;1683105024192;1558904;1.00;572.23;-4.84
51;0;1369866;1683104956872;1683104963297;1736;1.00;325.70;0.60
52;4;1033574;1683104957302;1683105027153;595411;1.00;584.22;-4.62
53;4;4621245;1683104958362;1683105037692;53687;0.90;626.89;-4.96
54;4;4833176;1683104959645;1683105040157;12673;0.90;636.87;-5.08
55;2;1440865;1683104959679;1683104966874;1443;1.00;340.18;-2.46
56;0;1821546;1683104959992;1683104969680;1443;1.00;351.54;0.13
57;4;232270;1683104960356;1683105031699;227425;0.90;602.62;-4.38
58;4;1360779;1683104960860;1683105035899;140556;0.90;619.63;-4.87
59;2;3800226;1683104962785;1683104970895;1518;1.00;356.46;-2.07
60;4;5880308;1683104963817;1683105040282;1848;0.90;637.37;-4.43
61;0;12577411;1683104963921;1683104993337;606;1.00;447.32;0.05
62;3;5594571;1683104965025;1683104980897;1442;1.00;396.95;-3.41
63;4;1063238;1683104967364;1683105037696;33180;0.90;626.90;-4.88
64;4;708344;1683104968327;1683105037705;20506;0.90;626.94;-5.20
65;1;13186276;1683104968979;1683105001283;292;1.00;479.48;-0.65
66;4;5125825;1683104969578;1683105040497;705;0.90;638.24;-4.87
67;4;764881;1683104969860;1683105040169;7832;0.90;636.91;-4.63
68;4;1083727;1683104969951;1683105040189;4840;0.90;637.00;-4.50
69;2;346748;1683104970895;1683104972787;1735;1.00;364.12;-2.33
70;4;2130248;1683104971578;1683105040242;2991;0.90;637.21;-4.33
71;2;4510944;1683104971687;1683104981281;647;1.00;398.51;-2.07
72;4;7368640;1683104972412;1683105041613;167;0.90;642.76;-5.01
73;4;1928248;1683104976151;1683105040370;1142;0.90;637.73;-5.06
74;4;3163424;1683104976357;1683105040711;436;0.90;639.11;-4.88
75;3;2989506;1683104977007;1683104991282;1128;1.00;438.99;-3.66
76;4;1690447;1683104980147;1683105041056;268;0.90;640.51;-4.88
78;2;119365;1683104981281;1683104981688;870;1.00;400.15;-2.38
79;2;2124833;1683104981541;1683104991282;253;0.90;439.00;-1.99
80;4;3164768;1683104982974;1683105043927;66;0.90;652.13;-4.52
81;3;2046569;1683104983336;1683104991543;393;1.00;440.05;-3.11
82;4;6895132;1683104983728;1683105052582;32;0.90;687.17;-4.83
83;2;4892615;1683104985976;1683105001282;207;0.90;479.48;-1.91
84;3;5722433;1683104987490;1683105001283;392;1.00;479.49;-3.01
85;4;437373;1683104987746;1683105042510;100;0.90;646.39;-4.78
87;4;1447417;1683104989394;1683105046349;33;0.90;661.94;-5.04
88;0;279642;1683104990058;1683104993337;313;0.90;447.32;0.39
89;0;2066320;1683104991282;1683105000059;45;0.90;474.53;0.81
91;0;2818727;1683104995539;1683105006244;313;0.90;499.57;0.45
92;2;7213717;1683104995877;1683105010989;185;1.00;518.78;-2.42
93;1;1761009;1683104996243;1683105006244;477;1.00;499.57;-0.49
94;3;5665500;1683104998966;1683105010988;291;1.00;518.78;-3.34
95;1;9372684;1683104999635;1683105024190;38;0.64;572.22;-1.13
96;0;2879415;1683105000986;1683105006480;312;0.90;500.53;0.02
97;0;1952296;1683105006480;1683105010990;206;0.90;518.78;0.95
98;3;3018559;1683105009889;1683105020293;146;1.00;556.45;-3.49
99;2;8879871;1683105009896;1683105031701;98;0.90;602.63;-2.04
100;0;2089187;1683105010290;1683105016482;144;0.90;541.02;0.94
101;0;3424113;1683105014188;1683105024191;167;0.90;572.23;0.91
102;3;14492552;1683105015456;1683105050786;43;0.90;679.89;-3.45
103;1;2667440;1683105017152;1683105027153;143;0.90;584.22;-0.49
104;0;5811970;1683105019917;1683105031702;142;0.90;602.64;0.32
105;1;1012122;1683105021696;1683105027153;37;0.64;584.22;-0.78
106;1;8682051;1683105023555;1683105040227;97;0.90;637.15;-0.37
107;2;1011418;1683105025898;1683105035900;3;0.10;619.63;-2.13
108;2;203592;1683105027687;1683105037689;44;0.90;626.88;-2.17
109;0;3779306;1683105030152;1683105037702;44;0.90;626.93;0.47
110;2;8721077;1683105031698;1683105065309;8;0.49;738.70;-2.52
111;0;6172249;1683105036972;1683105072085;42;0.90;766.13;0.91
112;1;3346750;1683105038903;1683105056707;73;0.90;703.87;-0.35
113;3;468172;1683105041941;1683105053924;65;0.90;692.60;-3.04
114;3;2052409;1683105044714;1683105056712;28;0.64;703.89;-3.34
115;1;582645;1683105050657;1683105056715;23;0.64;703.90;-1.01
116;3;2057051;1683105052568;1683105072085;2;0.10;766.13;-3.30
117;1;862752;1683105052706;1683105067432;22;0.64;747.29;-1.22
118;2;10141141;1683105056665;1683105083418;21;0.64;812.01;-2.31
119;0;782183;1683105056704;1683105072086;23;0.84;766.13;0.61
120;1;5159307;1683105056707;1683105074188;22;0.64;774.64;-0.91
121;3;1999251;1683105058099;1683105072094;27;0.64;766.16;-3.85
122;0;10318389;1683105058351;1683105094575;9;0.34;857.18;0.58
123;3;7384058;1683105065286;1683105085977;25;0.64;822.37;-3.56
124;1;2290585;1683105072057;1683105079198;26;0.64;794.93;-0.77
125;1;6243244;1683105079198;1683105114694;6;0.41;938.63;-1.24
126;2;2868633;1683105083417;1683105094585;9;0.41;857.22;-2.27
127;3;115323;1683105084570;1683105090919;17;0.84;842.38;-3.37
128;3;4866684;1683105084863;1683105116856;4;0.26;947.38;-3.38
129;0;2967486;1683105085522;1683105102741;5;0.30;890.23;0.58
130;2;981401;1683105092148;1683105110087;5;0.28;919.98;-1.72
131;0;646773;1683105093758;1683105114703;7;0.49;938.67;0.58
132;1;16041319;1683105093856;1683105169319;3;0.15;1159.78;-0.75
133;2;5570800;1683105093956;1683105121465;4;0.23;966.04;-1.86
134;0;1739810;1683105095131;1683105121448;8;0.58;965.98;0.80
135;0;3397221;1683105102670;1683105123624;4;0.28;974.78;0.63
136;3;3049447;1683105102712;1683105121479;6;0.41;966.10;-3.88
137;3;3395562;1683105114659;1683105150379;3;0.28;1083.10;-3.65
138;2;2715891;1683105114676;1683105135145;3;0.23;1021.43;-1.99
139;0;1120128;1683105114680;1683105130249;2;0.26;1001.61;0.45
140;0;7844075;1683105121387;1683105157542;2;0.26;1112.10;0.44
141;2;135731;1683105122513;1683105143235;4;0.30;1054.18;-2.01
142;2;252252;1683105122795;1683105155330;3;0.26;1103.15;-2.48
143;2;10966769;1683105123624;1683105188193;1;0.09;1236.19;-2.17
144;3;7707124;1683105128083;1683105180642;1;0.14;1205.62;-3.29
145;0;11780499;1683105148116;1683105202129;1;0.07;1292.61;0.92
146;1;4290546;1683105148197;1683105186106;1;0.10;1227.74;-0.84
147;3;9882055;1683105155276;1683105207099;1;0.20;1312.73;-3.20
148;1;2683795;1683105163389;1683105193656;1;0.26;1258.31;-0.33
149;2;642467;1683105169319;1683105190108;1;0.06;1243.94;-1.93
150;2;1676877;1683105180642;1683105200437;1;0.08;1285.76;-1.75
