<?xml version="1.0" encoding="UTF-8" standalone="no"?>
<!DOCTYPE svg PUBLIC "-//W3C//DTD SVG 1.1//EN"
 "http://www.w3.org/Graphics/SVG/1.1/DTD/svg11.dtd">
<!-- Generated by graphviz version 5.0.1 (20220820.1526)
 -->
<!-- Title: network Pages: 1 -->
<svg width="880pt" height="520pt"
 viewBox="0.00 0.00 880.00 520.00" xmlns="http://www.w3.org/2000/svg" xmlns:xlink="http://www.w3.org/1999/xlink">
<g id="graph0" class="graph" transform="scale(1 1) rotate(0) translate(4 516)">
<title>network</title>
<polygon fill="white" stroke="none" points="-4,4 -4,-516 876,-516 876,4 -4,4"/>
<!-- 0 -->
<g id="node1" class="node">
<title>0</title>
<ellipse fill="none" stroke="black" cx="29.12" cy="-391.27" rx="28.98" ry="37.45"/>
<text text-anchor="middle" x="29.12" y="-402.57" font-family="Times,serif" font-size="14.00">0</text>
<text text-anchor="middle" x="29.12" y="-387.57" font-family="Times,serif" font-size="14.00">598</text>
<text text-anchor="middle" x="29.12" y="-372.57" font-family="Times,serif" font-size="14.00">1.00</text>
</g>
<!-- 1 -->
<g id="node2" class="node">
<title>1</title>
<ellipse fill="none" stroke="#709dfd" cx="119.47" cy="-459" rx="28.98" ry="37.45"/>
<text text-anchor="middle" x="119.47" y="-470.3" font-family="Times,serif" font-size="14.00">1</text>
<text text-anchor="middle" x="119.47" y="-455.3" font-family="Times,serif" font-size="14.00">152</text>
<text text-anchor="middle" x="119.47" y="-440.3" font-family="Times,serif" font-size="14.00">0.96</text>
</g>
<!-- 1&#45;&gt;0 -->
<g id="edge1" class="edge">
<title>1&#45;&gt;0</title>
<path fill="none" stroke="black" d="M94.3,-440.14C84.5,-432.78 73.12,-424.25 62.63,-416.39"/>
<polygon fill="black" stroke="black" points="64.57,-413.47 54.47,-410.27 60.37,-419.07 64.57,-413.47"/>
</g>
<!-- 2 -->
<g id="node3" class="node">
<title>2</title>
<ellipse fill="none" stroke="#f1dcf5" cx="161.19" cy="-282.38" rx="28.98" ry="37.45"/>
<text text-anchor="middle" x="161.19" y="-293.68" font-family="Times,serif" font-size="14.00">2</text>
<text text-anchor="middle" x="161.19" y="-278.68" font-family="Times,serif" font-size="14.00">25</text>
<text text-anchor="middle" x="161.19" y="-263.68" font-family="Times,serif" font-size="14.00">0.74</text>
</g>
<!-- 2&#45;&gt;1 -->
<g id="edge2" class="edge">
<title>2&#45;&gt;1</title>
<path fill="none" stroke="black" d="M152.65,-318.55C146.21,-345.81 137.32,-383.41 130.37,-412.84"/>
<polygon fill="black" stroke="black" points="126.89,-412.35 128,-422.88 133.71,-413.96 126.89,-412.35"/>
</g>
<!-- 3 -->
<g id="node4" class="node">
<title>3</title>
<ellipse fill="none" stroke="#c84bdd" cx="95.16" cy="-364.33" rx="28.98" ry="37.45"/>
<text text-anchor="middle" x="95.16" y="-375.63" font-family="Times,serif" font-size="14.00">3</text>
<text text-anchor="middle" x="95.16" y="-360.63" font-family="Times,serif" font-size="14.00">120</text>
<text text-anchor="middle" x="95.16" y="-345.63" font-family="Times,serif" font-size="14.00">0.96</text>
</g>
<!-- 3&#45;&gt;0 -->
<g id="edge3" class="edge">
<title>3&#45;&gt;0</title>
<path fill="none" stroke="black" d="M67.15,-375.75C66.94,-375.84 66.73,-375.93 66.52,-376.01"/>
<polygon fill="black" stroke="black" points="64.9,-372.89 56.96,-379.91 67.54,-379.38 64.9,-372.89"/>
</g>
<!-- 4 -->
<g id="node5" class="node">
<title>4</title>
<ellipse fill="none" stroke="#8ad262" cx="137.16" cy="-196.35" rx="28.98" ry="37.45"/>
<text text-anchor="middle" x="137.16" y="-207.65" font-family="Times,serif" font-size="14.00">4</text>
<text text-anchor="middle" x="137.16" y="-192.65" font-family="Times,serif" font-size="14.00">87</text>
<text text-anchor="middle" x="137.16" y="-177.65" font-family="Times,serif" font-size="14.00">0.96</text>
</g>
<!-- 4&#45;&gt;0 -->
<g id="edge4" class="edge">
<title>4&#45;&gt;0</title>
<path fill="none" stroke="black" d="M120.04,-227.24C101.39,-260.89 71.5,-314.81 51.13,-351.58"/>
<polygon fill="black" stroke="black" points="47.95,-350.09 46.16,-360.53 54.07,-353.48 47.95,-350.09"/>
</g>
<!-- 5 -->
<g id="node6" class="node">
<title>5</title>
<ellipse fill="none" stroke="#5788ed" cx="128.54" cy="-73.97" rx="28.98" ry="37.45"/>
<text text-anchor="middle" x="128.54" y="-85.27" font-family="Times,serif" font-size="14.00">5</text>
<text text-anchor="middle" x="128.54" y="-70.27" font-family="Times,serif" font-size="14.00">161</text>
<text text-anchor="middle" x="128.54" y="-55.27" font-family="Times,serif" font-size="14.00">1.00</text>
</g>
<!-- 5&#45;&gt;0 -->
<g id="edge5" class="edge">
<title>5&#45;&gt;0</title>
<path fill="none" stroke="black" d="M117.61,-108.84C99.47,-166.75 63.13,-282.72 43.13,-346.57"/>
<polygon fill="black" stroke="black" points="39.72,-345.76 40.07,-356.35 46.39,-347.85 39.72,-345.76"/>
</g>
<!-- 6 -->
<g id="node7" class="node">
<title>6</title>
<ellipse fill="none" stroke="#709dfd" cx="239.88" cy="-474.2" rx="28.98" ry="37.45"/>
<text text-anchor="middle" x="239.88" y="-485.5" font-family="Times,serif" font-size="14.00">6</text>
<text text-anchor="middle" x="239.88" y="-470.5" font-family="Times,serif" font-size="14.00">1</text>
<text text-anchor="middle" x="239.88" y="-455.5" font-family="Times,serif" font-size="14.00">0.04</text>
</g>
<!-- 6&#45;&gt;5 -->
<g id="edge6" class="edge">
<title>6&#45;&gt;5</title>
<path fill="none" stroke="black" d="M230,-438.68C209.73,-365.85 163.51,-199.67 141.13,-119.24"/>
<polygon fill="black" stroke="black" points="144.45,-118.11 138.4,-109.41 137.7,-119.98 144.45,-118.11"/>
</g>
<!-- 7 -->
<g id="node8" class="node">
<title>7</title>
<ellipse fill="none" stroke="#5788ed" cx="194.55" cy="-98.95" rx="28.98" ry="37.45"/>
<text text-anchor="middle" x="194.55" y="-110.25" font-family="Times,serif" font-size="14.00">7</text>
<text text-anchor="middle" x="194.55" y="-95.25" font-family="Times,serif" font-size="14.00">77</text>
<text text-anchor="middle" x="194.55" y="-80.25" font-family="Times,serif" font-size="14.00">0.96</text>
</g>
<!-- 7&#45;&gt;0 -->
<g id="edge7" class="edge">
<title>7&#45;&gt;0</title>
<path fill="none" stroke="black" d="M177.31,-129.41C147.15,-182.71 84.83,-292.84 51.42,-351.87"/>
<polygon fill="black" stroke="black" points="48.2,-350.46 46.32,-360.88 54.29,-353.9 48.2,-350.46"/>
</g>
<!-- 8 -->
<g id="node9" class="node">
<title>8</title>
<ellipse fill="none" stroke="#8ad262" cx="204.22" cy="-182.16" rx="28.98" ry="37.45"/>
<text text-anchor="middle" x="204.22" y="-193.46" font-family="Times,serif" font-size="14.00">8</text>
<text text-anchor="middle" x="204.22" y="-178.46" font-family="Times,serif" font-size="14.00">86</text>
<text text-anchor="middle" x="204.22" y="-163.46" font-family="Times,serif" font-size="14.00">0.96</text>
</g>
<!-- 8&#45;&gt;1 -->
<g id="edge8" class="edge">
<title>8&#45;&gt;1</title>
<path fill="none" stroke="black" d="M193.48,-217.23C178.18,-267.22 150.08,-359.01 133.25,-413.97"/>
<polygon fill="black" stroke="black" points="129.83,-413.2 130.25,-423.79 136.52,-415.25 129.83,-413.2"/>
</g>
<!-- 8&#45;&gt;4 -->
<g id="edge9" class="edge">
<title>8&#45;&gt;4</title>
<path fill="none" stroke="black" d="M175.39,-188.26C175.29,-188.28 175.19,-188.3 175.1,-188.33"/>
<polygon fill="black" stroke="black" points="175.02,-184.76 165.96,-190.26 176.47,-191.61 175.02,-184.76"/>
</g>
<!-- 9 -->
<g id="node10" class="node">
<title>9</title>
<ellipse fill="none" stroke="#5788ed" cx="270.46" cy="-96.45" rx="28.98" ry="37.45"/>
<text text-anchor="middle" x="270.46" y="-107.75" font-family="Times,serif" font-size="14.00">9</text>
<text text-anchor="middle" x="270.46" y="-92.75" font-family="Times,serif" font-size="14.00">119</text>
<text text-anchor="middle" x="270.46" y="-77.75" font-family="Times,serif" font-size="14.00">0.96</text>
</g>
<!-- 9&#45;&gt;3 -->
<g id="edge10" class="edge">
<title>9&#45;&gt;3</title>
<path fill="none" stroke="black" d="M251.7,-125.12C219.82,-173.83 155.1,-272.73 119.68,-326.85"/>
<polygon fill="black" stroke="black" points="116.59,-325.18 114.05,-335.46 122.45,-329.01 116.59,-325.18"/>
</g>
<!-- 9&#45;&gt;5 -->
<g id="edge11" class="edge">
<title>9&#45;&gt;5</title>
<path fill="none" stroke="black" d="M241.4,-91.84C220.06,-88.47 190.86,-83.84 167.5,-80.14"/>
<polygon fill="black" stroke="black" points="167.99,-76.68 157.56,-78.57 166.89,-83.59 167.99,-76.68"/>
</g>
<!-- 10 -->
<g id="node11" class="node">
<title>10</title>
<ellipse fill="none" stroke="#c84bdd" cx="200.41" cy="-377.17" rx="28.98" ry="37.45"/>
<text text-anchor="middle" x="200.41" y="-388.47" font-family="Times,serif" font-size="14.00">10</text>
<text text-anchor="middle" x="200.41" y="-373.47" font-family="Times,serif" font-size="14.00">40</text>
<text text-anchor="middle" x="200.41" y="-358.47" font-family="Times,serif" font-size="14.00">0.96</text>
</g>
<!-- 10&#45;&gt;1 -->
<g id="edge12" class="edge">
<title>10&#45;&gt;1</title>
<path fill="none" stroke="black" d="M177.43,-400.4C168.8,-409.13 158.86,-419.18 149.67,-428.47"/>
<polygon fill="black" stroke="black" points="147.05,-426.14 142.5,-435.71 152.02,-431.07 147.05,-426.14"/>
</g>
<!-- 10&#45;&gt;5 -->
<g id="edge13" class="edge">
<title>10&#45;&gt;5</title>
<path fill="none" stroke="black" d="M191.88,-341.2C178.8,-286.04 153.81,-180.59 139.44,-119.95"/>
<polygon fill="black" stroke="black" points="142.77,-118.82 137.05,-109.9 135.95,-120.43 142.77,-118.82"/>
</g>
<!-- 11 -->
<g id="node12" class="node">
<title>11</title>
<ellipse fill="none" stroke="#f1dcf5" cx="227.18" cy="-267.14" rx="28.98" ry="37.45"/>
<text text-anchor="middle" x="227.18" y="-278.44" font-family="Times,serif" font-size="14.00">11</text>
<text text-anchor="middle" x="227.18" y="-263.44" font-family="Times,serif" font-size="14.00">29</text>
<text text-anchor="middle" x="227.18" y="-248.44" font-family="Times,serif" font-size="14.00">0.96</text>
</g>
<!-- 11&#45;&gt;7 -->
<g id="edge14" class="edge">
<title>11&#45;&gt;7</title>
<path fill="none" stroke="black" d="M220.1,-230.65C215.24,-205.63 208.77,-172.24 203.55,-145.34"/>
<polygon fill="black" stroke="black" points="206.96,-144.53 201.61,-135.38 200.08,-145.86 206.96,-144.53"/>
</g>
<!-- 11&#45;&gt;9 -->
<g id="edge15" class="edge">
<title>11&#45;&gt;9</title>
<path fill="none" stroke="black" d="M236.25,-231.36C242.83,-205.41 251.78,-170.11 258.87,-142.13"/>
<polygon fill="black" stroke="black" points="262.33,-142.74 261.4,-132.18 255.55,-141.02 262.33,-142.74"/>
</g>
<!-- 12 -->
<g id="node13" class="node">
<title>12</title>
<ellipse fill="none" stroke="#8ad262" cx="347.85" cy="-175.33" rx="28.98" ry="37.45"/>
<text text-anchor="middle" x="347.85" y="-186.63" font-family="Times,serif" font-size="14.00">12</text>
<text text-anchor="middle" x="347.85" y="-171.63" font-family="Times,serif" font-size="14.00">7</text>
<text text-anchor="middle" x="347.85" y="-156.63" font-family="Times,serif" font-size="14.00">0.60</text>
</g>
<!-- 12&#45;&gt;8 -->
<g id="edge16" class="edge">
<title>12&#45;&gt;8</title>
<path fill="none" stroke="black" d="M318.78,-176.71C297.08,-177.74 267.18,-179.17 243.36,-180.3"/>
<polygon fill="black" stroke="black" points="243.06,-176.81 233.24,-180.78 243.4,-183.8 243.06,-176.81"/>
</g>
<!-- 12&#45;&gt;9 -->
<g id="edge17" class="edge">
<title>12&#45;&gt;9</title>
<path fill="none" stroke="black" d="M325.05,-152.09C317.32,-144.21 308.58,-135.3 300.38,-126.95"/>
<polygon fill="black" stroke="black" points="302.87,-124.48 293.36,-119.79 297.87,-129.38 302.87,-124.48"/>
</g>
<!-- 13 -->
<g id="node14" class="node">
<title>13</title>
<ellipse fill="none" stroke="#c84bdd" cx="413.86" cy="-423.5" rx="28.98" ry="37.45"/>
<text text-anchor="middle" x="413.86" y="-434.8" font-family="Times,serif" font-size="14.00">13</text>
<text text-anchor="middle" x="413.86" y="-419.8" font-family="Times,serif" font-size="14.00">47</text>
<text text-anchor="middle" x="413.86" y="-404.8" font-family="Times,serif" font-size="14.00">0.74</text>
</g>
<!-- 13&#45;&gt;7 -->
<g id="edge18" class="edge">
<title>13&#45;&gt;7</title>
<path fill="none" stroke="black" d="M394.78,-395.27C355.09,-336.52 263.63,-201.19 219.4,-135.73"/>
<polygon fill="black" stroke="black" points="222.24,-133.68 213.74,-127.35 216.44,-137.6 222.24,-133.68"/>
</g>
<!-- 13&#45;&gt;9 -->
<g id="edge19" class="edge">
<title>13&#45;&gt;9</title>
<path fill="none" stroke="black" d="M399.46,-390.64C373.26,-330.89 317.85,-204.54 288.92,-138.56"/>
<polygon fill="black" stroke="black" points="292.08,-137.03 284.85,-129.28 285.67,-139.85 292.08,-137.03"/>
</g>
<!-- 14 -->
<g id="node15" class="node">
<title>14</title>
<ellipse fill="none" stroke="#5788ed" cx="350.04" cy="-88.85" rx="28.98" ry="37.45"/>
<text text-anchor="middle" x="350.04" y="-100.15" font-family="Times,serif" font-size="14.00">14</text>
<text text-anchor="middle" x="350.04" y="-85.15" font-family="Times,serif" font-size="14.00">24</text>
<text text-anchor="middle" x="350.04" y="-70.15" font-family="Times,serif" font-size="14.00">0.74</text>
</g>
<!-- 14&#45;&gt;8 -->
<g id="edge20" class="edge">
<title>14&#45;&gt;8</title>
<path fill="none" stroke="black" d="M323.97,-105.54C300.27,-120.7 265.12,-143.19 239.03,-159.89"/>
<polygon fill="black" stroke="black" points="237.09,-156.97 230.55,-165.31 240.86,-162.87 237.09,-156.97"/>
</g>
<!-- 14&#45;&gt;9 -->
<g id="edge21" class="edge">
<title>14&#45;&gt;9</title>
<path fill="none" stroke="black" d="M320.86,-91.64C317.29,-91.98 313.6,-92.33 309.91,-92.68"/>
<polygon fill="black" stroke="black" points="309.26,-89.23 299.64,-93.66 309.92,-96.2 309.26,-89.23"/>
</g>
<!-- 15 -->
<g id="node16" class="node">
<title>15</title>
<ellipse fill="none" stroke="#709dfd" cx="806.74" cy="-460.95" rx="28.98" ry="37.45"/>
<text text-anchor="middle" x="806.74" y="-472.25" font-family="Times,serif" font-size="14.00">15</text>
<text text-anchor="middle" x="806.74" y="-457.25" font-family="Times,serif" font-size="14.00">2</text>
<text text-anchor="middle" x="806.74" y="-442.25" font-family="Times,serif" font-size="14.00">0.60</text>
</g>
<!-- 33 -->
<g id="node34" class="node">
<title>33</title>
<ellipse fill="none" stroke="#f1dcf5" cx="700.89" cy="-269.74" rx="28.98" ry="37.45"/>
<text text-anchor="middle" x="700.89" y="-281.04" font-family="Times,serif" font-size="14.00">33</text>
<text text-anchor="middle" x="700.89" y="-266.04" font-family="Times,serif" font-size="14.00">3</text>
<text text-anchor="middle" x="700.89" y="-251.04" font-family="Times,serif" font-size="14.00">0.60</text>
</g>
<!-- 15&#45;&gt;33 -->
<g id="edge22" class="edge">
<title>15&#45;&gt;33</title>
<path fill="none" stroke="black" d="M789.73,-430.22C771.52,-397.33 742.57,-345.04 722.69,-309.14"/>
<polygon fill="black" stroke="black" points="725.76,-307.44 717.85,-300.38 719.63,-310.83 725.76,-307.44"/>
</g>
<!-- 40 -->
<g id="node41" class="node">
<title>40</title>
<ellipse fill="none" stroke="#f1dcf5" cx="777.42" cy="-262.89" rx="28.98" ry="37.45"/>
<text text-anchor="middle" x="777.42" y="-274.19" font-family="Times,serif" font-size="14.00">40</text>
<text text-anchor="middle" x="777.42" y="-259.19" font-family="Times,serif" font-size="14.00">3</text>
<text text-anchor="middle" x="777.42" y="-244.19" font-family="Times,serif" font-size="14.00">0.60</text>
</g>
<!-- 15&#45;&gt;40 -->
<g id="edge23" class="edge">
<title>15&#45;&gt;40</title>
<path fill="none" stroke="black" d="M801.22,-423.69C796.45,-391.46 789.53,-344.7 784.38,-309.9"/>
<polygon fill="black" stroke="black" points="787.83,-309.35 782.91,-299.97 780.91,-310.38 787.83,-309.35"/>
</g>
<!-- 16 -->
<g id="node17" class="node">
<title>16</title>
<ellipse fill="none" stroke="#f1dcf5" cx="293.18" cy="-273.42" rx="28.98" ry="37.45"/>
<text text-anchor="middle" x="293.18" y="-284.72" font-family="Times,serif" font-size="14.00">16</text>
<text text-anchor="middle" x="293.18" y="-269.72" font-family="Times,serif" font-size="14.00">11</text>
<text text-anchor="middle" x="293.18" y="-254.72" font-family="Times,serif" font-size="14.00">0.77</text>
</g>
<!-- 16&#45;&gt;8 -->
<g id="edge24" class="edge">
<title>16&#45;&gt;8</title>
<path fill="none" stroke="black" d="M270.27,-249.92C259.27,-238.63 245.95,-224.97 234.16,-212.88"/>
<polygon fill="black" stroke="black" points="236.54,-210.3 227.05,-205.58 231.53,-215.19 236.54,-210.3"/>
</g>
<!-- 16&#45;&gt;9 -->
<g id="edge25" class="edge">
<title>16&#45;&gt;9</title>
<path fill="none" stroke="black" d="M288.42,-236.32C284.95,-209.3 280.22,-172.5 276.49,-143.43"/>
<polygon fill="black" stroke="black" points="279.96,-142.97 275.22,-133.5 273.02,-143.86 279.96,-142.97"/>
</g>
<!-- 17 -->
<g id="node18" class="node">
<title>17</title>
<ellipse fill="none" stroke="#f1dcf5" cx="359.17" cy="-268.19" rx="28.98" ry="37.45"/>
<text text-anchor="middle" x="359.17" y="-279.49" font-family="Times,serif" font-size="14.00">17</text>
<text text-anchor="middle" x="359.17" y="-264.49" font-family="Times,serif" font-size="14.00">24</text>
<text text-anchor="middle" x="359.17" y="-249.49" font-family="Times,serif" font-size="14.00">0.74</text>
</g>
<!-- 17&#45;&gt;2 -->
<g id="edge26" class="edge">
<title>17&#45;&gt;2</title>
<path fill="none" stroke="black" d="M329.96,-270.28C295.65,-272.74 238.57,-276.84 200.42,-279.57"/>
<polygon fill="black" stroke="black" points="199.92,-276.1 190.2,-280.3 200.42,-283.08 199.92,-276.1"/>
</g>
<!-- 17&#45;&gt;8 -->
<g id="edge27" class="edge">
<title>17&#45;&gt;8</title>
<path fill="none" stroke="black" d="M332.18,-253.21C306.63,-239.02 268.1,-217.63 240,-202.03"/>
<polygon fill="black" stroke="black" points="241.34,-198.77 230.9,-196.98 237.94,-204.89 241.34,-198.77"/>
</g>
<!-- 18 -->
<g id="node19" class="node">
<title>18</title>
<ellipse fill="none" stroke="#c84bdd" cx="484.59" cy="-450.85" rx="28.98" ry="37.45"/>
<text text-anchor="middle" x="484.59" y="-462.15" font-family="Times,serif" font-size="14.00">18</text>
<text text-anchor="middle" x="484.59" y="-447.15" font-family="Times,serif" font-size="14.00">14</text>
<text text-anchor="middle" x="484.59" y="-432.15" font-family="Times,serif" font-size="14.00">0.79</text>
</g>
<!-- 18&#45;&gt;10 -->
<g id="edge28" class="edge">
<title>18&#45;&gt;10</title>
<path fill="none" stroke="black" d="M456.04,-443.45C404.65,-430.12 296.57,-402.11 238.78,-387.12"/>
<polygon fill="black" stroke="black" points="239.5,-383.69 228.94,-384.57 237.74,-390.47 239.5,-383.69"/>
</g>
<!-- 18&#45;&gt;11 -->
<g id="edge29" class="edge">
<title>18&#45;&gt;11</title>
<path fill="none" stroke="black" d="M458.96,-432.56C412.23,-399.21 313.15,-328.5 260.96,-291.25"/>
<polygon fill="black" stroke="black" points="262.87,-288.31 252.7,-285.35 258.8,-294.01 262.87,-288.31"/>
</g>
<!-- 19 -->
<g id="node20" class="node">
<title>19</title>
<ellipse fill="none" stroke="#5788ed" cx="416.37" cy="-80.59" rx="28.98" ry="37.45"/>
<text text-anchor="middle" x="416.37" y="-91.89" font-family="Times,serif" font-size="14.00">19</text>
<text text-anchor="middle" x="416.37" y="-76.89" font-family="Times,serif" font-size="14.00">3</text>
<text text-anchor="middle" x="416.37" y="-61.89" font-family="Times,serif" font-size="14.00">0.19</text>
</g>
<!-- 19&#45;&gt;8 -->
<g id="edge30" class="edge">
<title>19&#45;&gt;8</title>
<path fill="none" stroke="black" d="M389.07,-93.66C351.2,-111.79 282.63,-144.62 240.5,-164.79"/>
<polygon fill="black" stroke="black" points="238.92,-161.67 231.41,-169.14 241.94,-167.98 238.92,-161.67"/>
</g>
<!-- 19&#45;&gt;11 -->
<g id="edge31" class="edge">
<title>19&#45;&gt;11</title>
<path fill="none" stroke="black" d="M393.17,-103.47C359.04,-137.12 295.25,-200.02 257.46,-237.28"/>
<polygon fill="black" stroke="black" points="254.93,-234.86 250.27,-244.37 259.85,-239.84 254.93,-234.86"/>
</g>
<!-- 20 -->
<g id="node21" class="node">
<title>20</title>
<ellipse fill="none" stroke="#8ad262" cx="417.07" cy="-167.6" rx="28.98" ry="37.45"/>
<text text-anchor="middle" x="417.07" y="-178.9" font-family="Times,serif" font-size="14.00">20</text>
<text text-anchor="middle" x="417.07" y="-163.9" font-family="Times,serif" font-size="14.00">11</text>
<text text-anchor="middle" x="417.07" y="-148.9" font-family="Times,serif" font-size="14.00">0.77</text>
</g>
<!-- 20&#45;&gt;10 -->
<g id="edge32" class="edge">
<title>20&#45;&gt;10</title>
<path fill="none" stroke="black" d="M393.47,-190.43C353.97,-228.63 274.51,-305.5 230.85,-347.73"/>
<polygon fill="black" stroke="black" points="228.4,-345.22 223.65,-354.69 233.27,-350.26 228.4,-345.22"/>
</g>
<!-- 20&#45;&gt;11 -->
<g id="edge33" class="edge">
<title>20&#45;&gt;11</title>
<path fill="none" stroke="black" d="M389.86,-181.86C356.58,-199.31 300.14,-228.89 263.26,-248.23"/>
<polygon fill="black" stroke="black" points="261.57,-245.16 254.33,-252.91 264.82,-251.36 261.57,-245.16"/>
</g>
<!-- 21 -->
<g id="node22" class="node">
<title>21</title>
<ellipse fill="none" stroke="#f1dcf5" cx="425.2" cy="-340.51" rx="28.98" ry="37.45"/>
<text text-anchor="middle" x="425.2" y="-351.81" font-family="Times,serif" font-size="14.00">21</text>
<text text-anchor="middle" x="425.2" y="-336.81" font-family="Times,serif" font-size="14.00">2</text>
<text text-anchor="middle" x="425.2" y="-321.81" font-family="Times,serif" font-size="14.00">0.17</text>
</g>
<!-- 21&#45;&gt;8 -->
<g id="edge34" class="edge">
<title>21&#45;&gt;8</title>
<path fill="none" stroke="black" d="M399.42,-322.04C359.41,-293.37 282.39,-238.18 237.99,-206.37"/>
<polygon fill="black" stroke="black" points="240,-203.5 229.83,-200.52 235.92,-209.19 240,-203.5"/>
</g>
<!-- 22 -->
<g id="node23" class="node">
<title>22</title>
<ellipse fill="none" stroke="#8ad262" cx="502.86" cy="-231.83" rx="28.98" ry="37.45"/>
<text text-anchor="middle" x="502.86" y="-243.13" font-family="Times,serif" font-size="14.00">22</text>
<text text-anchor="middle" x="502.86" y="-228.13" font-family="Times,serif" font-size="14.00">23</text>
<text text-anchor="middle" x="502.86" y="-213.13" font-family="Times,serif" font-size="14.00">0.74</text>
</g>
<!-- 22&#45;&gt;13 -->
<g id="edge35" class="edge">
<title>22&#45;&gt;13</title>
<path fill="none" stroke="black" d="M487.77,-264.35C472.7,-296.8 449.49,-346.78 433.1,-382.06"/>
<polygon fill="black" stroke="black" points="429.92,-380.6 428.89,-391.15 436.27,-383.55 429.92,-380.6"/>
</g>
<!-- 22&#45;&gt;17 -->
<g id="edge36" class="edge">
<title>22&#45;&gt;17</title>
<path fill="none" stroke="black" d="M474.13,-239.1C452.2,-244.65 421.77,-252.35 397.73,-258.44"/>
<polygon fill="black" stroke="black" points="396.69,-255.09 387.86,-260.93 398.41,-261.87 396.69,-255.09"/>
</g>
<!-- 23 -->
<g id="node24" class="node">
<title>23</title>
<ellipse fill="none" stroke="#f1dcf5" cx="436.86" cy="-257.47" rx="28.98" ry="37.45"/>
<text text-anchor="middle" x="436.86" y="-268.77" font-family="Times,serif" font-size="14.00">23</text>
<text text-anchor="middle" x="436.86" y="-253.77" font-family="Times,serif" font-size="14.00">14</text>
<text text-anchor="middle" x="436.86" y="-238.77" font-family="Times,serif" font-size="14.00">0.79</text>
</g>
<!-- 23&#45;&gt;8 -->
<g id="edge37" class="edge">
<title>23&#45;&gt;8</title>
<path fill="none" stroke="black" d="M408.34,-248.24C366.62,-234.73 288.9,-209.58 242.33,-194.5"/>
<polygon fill="black" stroke="black" points="243.21,-191.11 232.61,-191.36 241.05,-197.76 243.21,-191.11"/>
</g>
<!-- 23&#45;&gt;10 -->
<g id="edge38" class="edge">
<title>23&#45;&gt;10</title>
<path fill="none" stroke="black" d="M409.74,-271.2C367.09,-292.79 284.31,-334.7 236.63,-358.84"/>
<polygon fill="black" stroke="black" points="234.92,-355.78 227.58,-363.42 238.08,-362.02 234.92,-355.78"/>
</g>
<!-- 24 -->
<g id="node25" class="node">
<title>24</title>
<ellipse fill="none" stroke="#c84bdd" cx="564.06" cy="-423.52" rx="28.98" ry="37.45"/>
<text text-anchor="middle" x="564.06" y="-434.82" font-family="Times,serif" font-size="14.00">24</text>
<text text-anchor="middle" x="564.06" y="-419.82" font-family="Times,serif" font-size="14.00">10</text>
<text text-anchor="middle" x="564.06" y="-404.82" font-family="Times,serif" font-size="14.00">0.77</text>
</g>
<!-- 24&#45;&gt;16 -->
<g id="edge39" class="edge">
<title>24&#45;&gt;16</title>
<path fill="none" stroke="black" d="M537.09,-408.58C488.01,-381.38 384.08,-323.79 329.07,-293.3"/>
<polygon fill="black" stroke="black" points="330.48,-290.08 320.04,-288.3 327.09,-296.21 330.48,-290.08"/>
</g>
<!-- 24&#45;&gt;20 -->
<g id="edge40" class="edge">
<title>24&#45;&gt;20</title>
<path fill="none" stroke="black" d="M546.76,-393.41C520.13,-347.04 469.08,-258.15 439.59,-206.81"/>
<polygon fill="black" stroke="black" points="442.54,-204.92 434.52,-197.99 436.47,-208.41 442.54,-204.92"/>
</g>
<!-- 25 -->
<g id="node26" class="node">
<title>25</title>
<ellipse fill="none" stroke="#5788ed" cx="509.17" cy="-65.85" rx="28.98" ry="37.45"/>
<text text-anchor="middle" x="509.17" y="-77.15" font-family="Times,serif" font-size="14.00">25</text>
<text text-anchor="middle" x="509.17" y="-62.15" font-family="Times,serif" font-size="14.00">6</text>
<text text-anchor="middle" x="509.17" y="-47.15" font-family="Times,serif" font-size="14.00">0.60</text>
</g>
<!-- 25&#45;&gt;12 -->
<g id="edge41" class="edge">
<title>25&#45;&gt;12</title>
<path fill="none" stroke="black" d="M483.25,-83.44C455.85,-102.03 412.49,-131.45 382.25,-151.98"/>
<polygon fill="black" stroke="black" points="380.01,-149.27 373.7,-157.78 383.94,-155.06 380.01,-149.27"/>
</g>
<!-- 26 -->
<g id="node27" class="node">
<title>26</title>
<ellipse fill="none" stroke="#f1dcf5" cx="502.86" cy="-315.3" rx="28.98" ry="37.45"/>
<text text-anchor="middle" x="502.86" y="-326.6" font-family="Times,serif" font-size="14.00">26</text>
<text text-anchor="middle" x="502.86" y="-311.6" font-family="Times,serif" font-size="14.00">23</text>
<text text-anchor="middle" x="502.86" y="-296.6" font-family="Times,serif" font-size="14.00">0.74</text>
</g>
<!-- 26&#45;&gt;13 -->
<g id="edge42" class="edge">
<title>26&#45;&gt;13</title>
<path fill="none" stroke="black" d="M481.54,-341.22C469.55,-355.8 454.43,-374.18 441.52,-389.87"/>
<polygon fill="black" stroke="black" points="438.66,-387.85 435.01,-397.79 444.06,-392.29 438.66,-387.85"/>
</g>
<!-- 26&#45;&gt;14 -->
<g id="edge43" class="edge">
<title>26&#45;&gt;14</title>
<path fill="none" stroke="black" d="M483.51,-286.62C455.89,-245.7 405.17,-170.55 374.84,-125.6"/>
<polygon fill="black" stroke="black" points="377.73,-123.63 369.24,-117.3 371.93,-127.55 377.73,-123.63"/>
</g>
<!-- 27 -->
<g id="node28" class="node">
<title>27</title>
<ellipse fill="none" stroke="#f1dcf5" cx="568.88" cy="-313.77" rx="28.98" ry="37.45"/>
<text text-anchor="middle" x="568.88" y="-325.07" font-family="Times,serif" font-size="14.00">27</text>
<text text-anchor="middle" x="568.88" y="-310.07" font-family="Times,serif" font-size="14.00">22</text>
<text text-anchor="middle" x="568.88" y="-295.07" font-family="Times,serif" font-size="14.00">0.74</text>
</g>
<!-- 27&#45;&gt;22 -->
<g id="edge44" class="edge">
<title>27&#45;&gt;22</title>
<path fill="none" stroke="black" d="M547.63,-287.39C542.16,-280.6 536.19,-273.19 530.44,-266.06"/>
<polygon fill="black" stroke="black" points="532.85,-263.47 523.85,-257.88 527.4,-267.86 532.85,-263.47"/>
</g>
<!-- 27&#45;&gt;26 -->
<g id="edge45" class="edge">
<title>27&#45;&gt;26</title>
<path fill="none" stroke="black" d="M539.73,-314.44C539.57,-314.45 539.42,-314.45 539.26,-314.45"/>
<polygon fill="black" stroke="black" points="542.15,-310.89 532.24,-314.62 542.32,-317.88 542.15,-310.89"/>
</g>
<!-- 28 -->
<g id="node29" class="node">
<title>28</title>
<ellipse fill="none" stroke="#8ad262" cx="503.03" cy="-148.81" rx="28.98" ry="37.45"/>
<text text-anchor="middle" x="503.03" y="-160.11" font-family="Times,serif" font-size="14.00">28</text>
<text text-anchor="middle" x="503.03" y="-145.11" font-family="Times,serif" font-size="14.00">13</text>
<text text-anchor="middle" x="503.03" y="-130.11" font-family="Times,serif" font-size="14.00">0.79</text>
</g>
<!-- 28&#45;&gt;18 -->
<g id="edge46" class="edge">
<title>28&#45;&gt;18</title>
<path fill="none" stroke="black" d="M500.73,-186.45C497.39,-241.2 491.18,-342.8 487.52,-402.86"/>
<polygon fill="black" stroke="black" points="484,-403.01 486.88,-413.21 490.99,-403.44 484,-403.01"/>
</g>
<!-- 28&#45;&gt;23 -->
<g id="edge47" class="edge">
<title>28&#45;&gt;23</title>
<path fill="none" stroke="black" d="M484.95,-178.5C477.29,-191.08 468.27,-205.89 460.12,-219.27"/>
<polygon fill="black" stroke="black" points="457.13,-217.45 454.92,-227.81 463.11,-221.09 457.13,-217.45"/>
</g>
<!-- 29 -->
<g id="node30" class="node">
<title>29</title>
<ellipse fill="none" stroke="#8ad262" cx="594.71" cy="-205.62" rx="28.98" ry="37.45"/>
<text text-anchor="middle" x="594.71" y="-216.92" font-family="Times,serif" font-size="14.00">29</text>
<text text-anchor="middle" x="594.71" y="-201.92" font-family="Times,serif" font-size="14.00">5</text>
<text text-anchor="middle" x="594.71" y="-186.92" font-family="Times,serif" font-size="14.00">0.60</text>
</g>
<!-- 29&#45;&gt;25 -->
<g id="edge48" class="edge">
<title>29&#45;&gt;25</title>
<path fill="none" stroke="black" d="M576.57,-175.98C563.75,-155.04 546.46,-126.78 532.6,-104.14"/>
<polygon fill="black" stroke="black" points="535.49,-102.15 527.28,-95.45 529.52,-105.8 535.49,-102.15"/>
</g>
<!-- 29&#45;&gt;27 -->
<g id="edge49" class="edge">
<title>29&#45;&gt;27</title>
<path fill="none" stroke="black" d="M586.11,-241.63C584.08,-250.11 581.89,-259.26 579.78,-268.11"/>
<polygon fill="black" stroke="black" points="576.36,-267.37 577.44,-277.91 583.17,-269 576.36,-267.37"/>
</g>
<!-- 30 -->
<g id="node31" class="node">
<title>30</title>
<ellipse fill="none" stroke="#c84bdd" cx="658.53" cy="-418.22" rx="28.98" ry="37.45"/>
<text text-anchor="middle" x="658.53" y="-429.52" font-family="Times,serif" font-size="14.00">30</text>
<text text-anchor="middle" x="658.53" y="-414.52" font-family="Times,serif" font-size="14.00">2</text>
<text text-anchor="middle" x="658.53" y="-399.52" font-family="Times,serif" font-size="14.00">0.14</text>
</g>
<!-- 30&#45;&gt;27 -->
<g id="edge50" class="edge">
<title>30&#45;&gt;27</title>
<path fill="none" stroke="black" d="M636.83,-392.94C625.02,-379.18 610.27,-361.99 597.53,-347.15"/>
<polygon fill="black" stroke="black" points="599.86,-344.49 590.69,-339.18 594.55,-349.05 599.86,-344.49"/>
</g>
<!-- 30&#45;&gt;28 -->
<g id="edge51" class="edge">
<title>30&#45;&gt;28</title>
<path fill="none" stroke="black" d="M641.15,-388.1C612.9,-339.17 557.06,-242.42 525.72,-188.13"/>
<polygon fill="black" stroke="black" points="528.57,-186.06 520.54,-179.15 522.51,-189.56 528.57,-186.06"/>
</g>
<!-- 31 -->
<g id="node32" class="node">
<title>31</title>
<ellipse fill="none" stroke="#5788ed" cx="576.02" cy="-120.31" rx="28.98" ry="37.45"/>
<text text-anchor="middle" x="576.02" y="-131.61" font-family="Times,serif" font-size="14.00">31</text>
<text text-anchor="middle" x="576.02" y="-116.61" font-family="Times,serif" font-size="14.00">1</text>
<text text-anchor="middle" x="576.02" y="-101.61" font-family="Times,serif" font-size="14.00">0.17</text>
</g>
<!-- 31&#45;&gt;21 -->
<g id="edge52" class="edge">
<title>31&#45;&gt;21</title>
<path fill="none" stroke="black" d="M556.61,-148.64C529.46,-188.28 480.13,-260.32 450.24,-303.96"/>
<polygon fill="black" stroke="black" points="447.3,-302.06 444.53,-312.29 453.07,-306.01 447.3,-302.06"/>
</g>
<!-- 31&#45;&gt;24 -->
<g id="edge53" class="edge">
<title>31&#45;&gt;24</title>
<path fill="none" stroke="black" d="M574.54,-157.79C572.37,-212.76 568.33,-315.24 565.95,-375.61"/>
<polygon fill="black" stroke="black" points="562.45,-375.51 565.55,-385.65 569.44,-375.79 562.45,-375.51"/>
</g>
<!-- 32 -->
<g id="node33" class="node">
<title>32</title>
<ellipse fill="none" stroke="#f1dcf5" cx="634.89" cy="-335.25" rx="28.98" ry="37.45"/>
<text text-anchor="middle" x="634.89" y="-346.55" font-family="Times,serif" font-size="14.00">32</text>
<text text-anchor="middle" x="634.89" y="-331.55" font-family="Times,serif" font-size="14.00">8</text>
<text text-anchor="middle" x="634.89" y="-316.55" font-family="Times,serif" font-size="14.00">0.60</text>
</g>
<!-- 32&#45;&gt;24 -->
<g id="edge54" class="edge">
<title>32&#45;&gt;24</title>
<path fill="none" stroke="black" d="M613.64,-361.73C606.64,-370.45 598.76,-380.27 591.38,-389.47"/>
<polygon fill="black" stroke="black" points="588.58,-387.37 585.05,-397.36 594.04,-391.75 588.58,-387.37"/>
</g>
<!-- 32&#45;&gt;27 -->
<g id="edge55" class="edge">
<title>32&#45;&gt;27</title>
<path fill="none" stroke="black" d="M606.51,-326.01C606.41,-325.98 606.32,-325.95 606.22,-325.92"/>
<polygon fill="black" stroke="black" points="607.82,-322.76 597.23,-322.99 605.66,-329.42 607.82,-322.76"/>
</g>
<!-- 33&#45;&gt;28 -->
<g id="edge56" class="edge">
<title>33&#45;&gt;28</title>
<path fill="none" stroke="black" d="M674.61,-253.68C639.58,-232.27 577.45,-194.3 538.34,-170.4"/>
<polygon fill="black" stroke="black" points="539.77,-167.16 529.41,-164.94 536.12,-173.14 539.77,-167.16"/>
</g>
<!-- 33&#45;&gt;32 -->
<g id="edge57" class="edge">
<title>33&#45;&gt;32</title>
<path fill="none" stroke="black" d="M677.8,-292.65C673.81,-296.62 669.6,-300.8 665.44,-304.92"/>
<polygon fill="black" stroke="black" points="662.7,-302.71 658.07,-312.24 667.63,-307.68 662.7,-302.71"/>
</g>
<!-- 34 -->
<g id="node35" class="node">
<title>34</title>
<ellipse fill="none" stroke="#5788ed" cx="577.4" cy="-37.3" rx="28.98" ry="37.45"/>
<text text-anchor="middle" x="577.4" y="-48.6" font-family="Times,serif" font-size="14.00">34</text>
<text text-anchor="middle" x="577.4" y="-33.6" font-family="Times,serif" font-size="14.00">2</text>
<text text-anchor="middle" x="577.4" y="-18.6" font-family="Times,serif" font-size="14.00">0.60</text>
</g>
<!-- 34&#45;&gt;27 -->
<g id="edge58" class="edge">
<title>34&#45;&gt;27</title>
<path fill="none" stroke="black" d="M576.24,-74.88C574.71,-124.53 572.01,-212.03 570.34,-266.23"/>
<polygon fill="black" stroke="black" points="566.84,-266.17 570.03,-276.28 573.84,-266.39 566.84,-266.17"/>
</g>
<!-- 34&#45;&gt;28 -->
<g id="edge59" class="edge">
<title>34&#45;&gt;28</title>
<path fill="none" stroke="black" d="M558.44,-65.73C549.16,-79.65 537.86,-96.58 527.9,-111.52"/>
<polygon fill="black" stroke="black" points="524.85,-109.79 522.21,-120.05 530.67,-113.67 524.85,-109.79"/>
</g>
<!-- 35 -->
<g id="node36" class="node">
<title>35</title>
<ellipse fill="none" stroke="#5788ed" cx="701.93" cy="-103.77" rx="28.98" ry="37.45"/>
<text text-anchor="middle" x="701.93" y="-115.07" font-family="Times,serif" font-size="14.00">35</text>
<text text-anchor="middle" x="701.93" y="-100.07" font-family="Times,serif" font-size="14.00">4</text>
<text text-anchor="middle" x="701.93" y="-85.07" font-family="Times,serif" font-size="14.00">0.60</text>
</g>
<!-- 35&#45;&gt;29 -->
<g id="edge60" class="edge">
<title>35&#45;&gt;29</title>
<path fill="none" stroke="black" d="M678.4,-126.12C662.9,-140.85 642.43,-160.29 625.62,-176.26"/>
<polygon fill="black" stroke="black" points="623.02,-173.89 618.18,-183.32 627.84,-178.97 623.02,-173.89"/>
</g>
<!-- 35&#45;&gt;32 -->
<g id="edge61" class="edge">
<title>35&#45;&gt;32</title>
<path fill="none" stroke="black" d="M691.75,-138.93C680,-179.49 660.66,-246.28 647.84,-290.51"/>
<polygon fill="black" stroke="black" points="644.48,-289.56 645.06,-300.14 651.2,-291.51 644.48,-289.56"/>
</g>
<!-- 36 -->
<g id="node37" class="node">
<title>36</title>
<ellipse fill="none" stroke="#c84bdd" cx="724.64" cy="-383.21" rx="28.98" ry="37.45"/>
<text text-anchor="middle" x="724.64" y="-394.51" font-family="Times,serif" font-size="14.00">36</text>
<text text-anchor="middle" x="724.64" y="-379.51" font-family="Times,serif" font-size="14.00">4</text>
<text text-anchor="middle" x="724.64" y="-364.51" font-family="Times,serif" font-size="14.00">0.60</text>
</g>
<!-- 36&#45;&gt;27 -->
<g id="edge62" class="edge">
<title>36&#45;&gt;27</title>
<path fill="none" stroke="black" d="M697.15,-370.95C671.76,-359.63 633.85,-342.73 605.82,-330.24"/>
<polygon fill="black" stroke="black" points="606.91,-326.89 596.35,-326.02 604.06,-333.28 606.91,-326.89"/>
</g>
<!-- 36&#45;&gt;28 -->
<g id="edge63" class="edge">
<title>36&#45;&gt;28</title>
<path fill="none" stroke="black" d="M702.17,-359.44C661.94,-316.89 577.6,-227.69 532.68,-180.17"/>
<polygon fill="black" stroke="black" points="534.97,-177.5 525.56,-172.64 529.88,-182.31 534.97,-177.5"/>
</g>
<!-- 37 -->
<g id="node38" class="node">
<title>37</title>
<ellipse fill="none" stroke="#8ad262" cx="843.43" cy="-219.98" rx="28.98" ry="37.45"/>
<text text-anchor="middle" x="843.43" y="-231.28" font-family="Times,serif" font-size="14.00">37</text>
<text text-anchor="middle" x="843.43" y="-216.28" font-family="Times,serif" font-size="14.00">1</text>
<text text-anchor="middle" x="843.43" y="-201.28" font-family="Times,serif" font-size="14.00">0.60</text>
</g>
<!-- 37&#45;&gt;15 -->
<g id="edge64" class="edge">
<title>37&#45;&gt;15</title>
<path fill="none" stroke="black" d="M837.82,-256.84C831.4,-299 820.87,-368.13 813.87,-414.08"/>
<polygon fill="black" stroke="black" points="810.39,-413.68 812.35,-424.09 817.31,-414.73 810.39,-413.68"/>
</g>
<!-- 37&#45;&gt;34 -->
<g id="edge65" class="edge">
<title>37&#45;&gt;34</title>
<path fill="none" stroke="black" d="M817.44,-202.13C769.14,-168.96 665.57,-97.85 611.63,-60.81"/>
<polygon fill="black" stroke="black" points="613.33,-57.73 603.1,-54.96 609.37,-63.5 613.33,-57.73"/>
</g>
<!-- 38 -->
<g id="node39" class="node">
<title>38</title>
<ellipse fill="none" stroke="#c84bdd" cx="790.64" cy="-374.21" rx="28.98" ry="37.45"/>
<text text-anchor="middle" x="790.64" y="-385.51" font-family="Times,serif" font-size="14.00">38</text>
<text text-anchor="middle" x="790.64" y="-370.51" font-family="Times,serif" font-size="14.00">1</text>
<text text-anchor="middle" x="790.64" y="-355.51" font-family="Times,serif" font-size="14.00">0.14</text>
</g>
<!-- 38&#45;&gt;19 -->
<g id="edge66" class="edge">
<title>38&#45;&gt;19</title>
<path fill="none" stroke="black" d="M765.79,-354.72C700.39,-303.41 523.45,-164.6 449.53,-106.61"/>
<polygon fill="black" stroke="black" points="451.48,-103.69 441.45,-100.27 447.16,-109.2 451.48,-103.69"/>
</g>
<!-- 38&#45;&gt;30 -->
<g id="edge67" class="edge">
<title>38&#45;&gt;30</title>
<path fill="none" stroke="black" d="M762.3,-383.65C743.06,-390.06 717.39,-398.61 696.4,-405.61"/>
<polygon fill="black" stroke="black" points="695.21,-402.32 686.83,-408.8 697.42,-408.96 695.21,-402.32"/>
</g>
<!-- 39 -->
<g id="node40" class="node">
<title>39</title>
<ellipse fill="none" stroke="#f1dcf5" cx="694.52" cy="-186.76" rx="28.98" ry="37.45"/>
<text text-anchor="middle" x="694.52" y="-198.06" font-family="Times,serif" font-size="14.00">39</text>
<text text-anchor="middle" x="694.52" y="-183.06" font-family="Times,serif" font-size="14.00">1</text>
<text text-anchor="middle" x="694.52" y="-168.06" font-family="Times,serif" font-size="14.00">0.05</text>
</g>
<!-- 39&#45;&gt;19 -->
<g id="edge68" class="edge">
<title>39&#45;&gt;19</title>
<path fill="none" stroke="black" d="M666.57,-176.1C616.28,-156.9 510.5,-116.52 453.93,-94.93"/>
<polygon fill="black" stroke="black" points="454.88,-91.55 444.29,-91.25 452.39,-98.09 454.88,-91.55"/>
</g>
<!-- 39&#45;&gt;28 -->
<g id="edge69" class="edge">
<title>39&#45;&gt;28</title>
<path fill="none" stroke="black" d="M665.85,-181.08C632.85,-174.54 578.49,-163.77 541.75,-156.49"/>
<polygon fill="black" stroke="black" points="542.38,-153.04 531.89,-154.53 541.02,-159.91 542.38,-153.04"/>
</g>
<!-- 40&#45;&gt;35 -->
<g id="edge70" class="edge">
<title>40&#45;&gt;35</title>
<path fill="none" stroke="black" d="M762.14,-230.69C750.43,-206 734.17,-171.73 721.5,-145.03"/>
<polygon fill="black" stroke="black" points="724.63,-143.46 717.18,-135.93 718.31,-146.46 724.63,-143.46"/>
</g>
<!-- 40&#45;&gt;36 -->
<g id="edge71" class="edge">
<title>40&#45;&gt;36</title>
<path fill="none" stroke="black" d="M763,-295.77C756.89,-309.69 749.69,-326.09 743.2,-340.91"/>
<polygon fill="black" stroke="black" points="739.86,-339.81 739.05,-350.37 746.27,-342.62 739.86,-339.81"/>
</g>
</g>
</svg>
