id;agent_id;nonce;time_creation;time_edged;weight;confidence;x;y
0;0;0;1681321866491;1681321866491;454;1.00;0.00;0.00
1;0;3521467;1681321866491;1681321879382;12;0.34;20.89;0.68
2;3;3964347;1681321866491;1681321879382;21;0.63;20.89;-3.19
3;2;2518352;1681321866491;1681321876491;53;0.92;16.21;-2.07
4;4;547269;1681321866491;1681321867108;59;0.95;1.00;-4.93
5;1;7924306;1681321866491;1681321881032;24;0.73;23.57;-0.33
6;4;1041062;1681321867108;1681321868296;86;0.97;2.93;-5.14
7;4;1640316;1681321868296;1681321877109;52;0.81;17.21;-4.89
8;2;289595;1681321869382;1681321877109;23;0.60;17.21;-2.22
9;2;4879651;1681321869717;1681321881032;18;0.53;23.57;-1.64
10;4;2046638;1681321870208;1681321879382;15;0.54;20.89;-4.77
11;0;3868356;1681321870527;1681321881032;19;0.60;23.57;0.19
12;3;765260;1681321871032;1681321879382;35;0.63;20.89;-3.56
13;3;8104278;1681321871865;1681321888994;11;0.39;36.47;-3.82
14;4;3395496;1681321872468;1681321881033;36;0.75;23.57;-4.37
15;0;3771635;1681321874853;1681321882468;16;0.73;25.89;0.76
16;2;18345013;1681321875247;1681321902871;3;0.15;58.96;-2.15
17;1;3522527;1681321875525;1681321886341;25;0.81;32.17;-0.65
18;4;3458348;1681321876341;1681321888994;58;0.95;36.47;-4.27
19;0;1266784;1681321878994;1681321888994;11;0.60;36.47;0.83
20;1;10617836;1681321879392;1681321892870;34;0.63;42.75;-0.66
21;4;1595715;1681321880111;1681321890111;18;0.60;38.28;-5.18
22;0;2246197;1681321880404;1681321888994;11;0.34;36.47;0.22
23;3;5235341;1681321880937;1681321890938;8;0.28;39.62;-3.76
24;4;3784486;1681321881889;1681321892870;15;0.73;42.75;-4.30
25;0;4060994;1681321882869;1681321892870;23;0.51;42.75;0.02
26;4;9158346;1681321886412;1681321902871;20;0.63;58.96;-4.44
27;3;7798028;1681321887132;1681321902404;7;0.28;58.20;-3.78
28;0;3505672;1681321887805;1681321897806;10;0.45;50.75;0.19
29;1;618621;1681321891721;1681321901722;12;0.53;57.10;-0.65
30;0;508535;1681321891764;1681321901723;10;0.39;57.10;0.30
31;1;2272275;1681321892402;1681321901765;7;0.22;57.17;-0.81
32;0;7843106;1681321892870;1681321902871;4;0.15;58.96;0.05
33;1;9769083;1681321894774;1681321911765;9;0.45;73.38;-0.49
34;3;2897963;1681321895718;1681321906479;2;0.09;64.81;-3.76
35;2;909088;1681321895898;1681321910356;9;0.27;71.09;-2.24
36;4;3401850;1681321896479;1681321910356;8;0.26;71.09;-4.27
37;0;187947;1681321900355;1681321910356;4;0.23;71.09;0.67
38;3;2663561;1681321901722;1681321911765;4;0.13;73.38;-3.87
39;2;70224;1681321901722;1681321911723;5;0.26;73.31;-1.63
40;4;3590033;1681321901723;1681321911723;2;0.15;73.31;-5.07
41;0;2422871;1681321901765;1681321915675;1;0.06;79.71;0.37
42;2;3009897;1681321902404;1681321915676;2;0.15;79.71;-2.55
43;1;6384001;1681321903596;1681321915676;7;0.26;79.71;-1.18
44;0;2752166;1681321904379;1681321915675;2;0.01;79.71;0.52
45;3;1076304;1681321904615;1681321915676;1;0.02;79.71;-3.23
46;4;4109907;1681321905675;1681321915675;2;0.08;79.71;-4.59
47;2;652724;1681321905899;1681321920356;6;0.39;87.30;-2.28
48;0;3574290;1681321907209;1681321917211;2;0.05;82.20;0.89
49;4;23341431;1681321909435;1681321935677;1;0.08;112.13;-4.29
50;1;10238205;1681321909839;1681321925676;3;0.21;95.92;-0.40
51;3;895794;1681321910356;1681321920356;6;0.22;87.30;-3.49
52;0;2656123;1681321911723;1681321921724;1;0.07;89.52;0.81
53;2;168905;1681321911723;1681321921765;3;0.13;89.58;-2.05
54;3;2731934;1681321911765;1681321921724;1;0.03;89.52;-3.51
55;3;6065974;1681321915675;1681321929123;1;0.01;101.51;-3.00
56;0;2073351;1681321915675;1681321925676;2;0.21;95.92;0.59
57;2;1095880;1681321915675;1681321925677;1;0.15;95.92;-2.25
58;2;229784;1681321917211;1681321931753;2;0.05;105.77;-1.75
59;0;6861991;1681321917823;1681321931754;2;0.13;105.77;0.91
60;1;2765504;1681321919123;1681321925677;1;0.00;95.92;-0.87
61;3;1810149;1681321921592;1681321931754;1;0.07;105.77;-3.20
62;2;1051164;1681321921724;1681321931754;2;0.21;105.77;-2.13
63;1;1724417;1681321921753;1681321931753;1;0.09;105.77;-0.76
64;3;9615007;1681321923590;1681321935677;1;0.13;112.13;-3.15
65;1;3179543;1681321923655;1681321934634;1;0.01;110.44;-1.10
66;0;751318;1681321924634;1681321935677;1;0.02;112.13;0.92
67;2;4887344;1681321925676;1681321935677;1;0.05;112.13;-2.25
68;0;7933517;1681321925677;1681321935678;1;0.21;112.13;0.80
