id;agent_id;nonce;time_creation;time_edged;weight;confidence;x;y
0;0;0;1681322131712;1681322131712;291;1.00;0.00;0.00
1;3;1472659;1681322131712;1681322141713;7;0.24;93.47;-3.30
2;0;15992628;1681322131712;1681322153428;5;0.11;202.94;0.05
3;4;2015835;1681322131712;1681322141713;26;0.53;93.47;-4.74
4;1;111771;1681322131712;1681322131820;20;0.58;1.00;-1.22
5;2;1366470;1681322131712;1681322133355;38;0.74;15.36;-1.67
6;1;2234545;1681322131820;1681322141713;6;0.11;93.47;-1.04
7;2;3690365;1681322133355;1681322144133;15;0.43;116.07;-1.66
8;3;4231146;1681322133478;1681322144524;27;0.52;119.74;-3.64
9;4;405086;1681322134132;1681322141713;15;0.35;93.47;-5.14
10;1;1111071;1681322134523;1681322141821;4;0.07;94.47;-0.51
11;4;3627472;1681322134607;1681322145718;15;0.31;130.90;-4.37
12;1;1685872;1681322135717;1681322144524;11;0.32;119.74;-0.33
13;2;2398249;1681322137478;1681322145718;15;0.24;130.90;-2.52
14;1;2253933;1681322137564;1681322147478;9;0.26;147.34;-0.35
15;3;1597405;1681322138219;1681322145718;6;0.13;130.90;-3.72
16;4;47829;1681322138602;1681322148220;11;0.24;154.27;-5.06
17;4;4314666;1681322138661;1681322150511;15;0.44;175.69;-4.74
18;3;372783;1681322140038;1681322148602;6;0.12;157.85;-2.97
19;1;316032;1681322140168;1681322150263;6;0.24;173.36;-1.05
20;2;69628;1681322140262;1681322148220;12;0.40;154.27;-2.04
21;2;7079445;1681322140351;1681322153427;26;0.52;202.94;-2.58
22;3;92867;1681322140511;1681322150263;18;0.49;173.36;-3.00
23;1;1096668;1681322140567;1681322150263;23;0.44;173.37;-0.98
24;3;2257029;1681322141713;1681322153427;6;0.24;202.94;-3.03
25;1;14429609;1681322141713;1681322166551;2;0.05;325.59;-0.84
26;4;3758410;1681322143426;1681322153427;4;0.14;202.94;-4.99
27;3;11539468;1681322145719;1681322166551;3;0.07;325.59;-3.19
28;4;1497256;1681322147478;1681322153428;10;0.28;202.94;-4.44
29;2;7413796;1681322147769;1681322159397;14;0.24;258.74;-2.41
30;0;5584818;1681322149397;1681322157479;1;0.05;240.81;0.85
31;4;5494473;1681322150263;1681322159397;10;0.24;258.74;-4.46
32;0;3298973;1681322155693;1681322168883;13;0.24;347.38;0.10
33;2;2721572;1681322156224;1681322166552;5;0.24;325.60;-2.27
34;4;419881;1681322156550;1681322160263;9;0.35;266.83;-4.55
35;4;2553812;1681322157026;1681322168883;14;0.43;347.38;-4.49
36;1;5471532;1681322157698;1681322168883;4;0.16;347.38;-0.43
37;3;3995337;1681322158881;1681322168883;3;0.06;347.38;-2.93
38;2;17783343;1681322159420;1681322183495;1;0.07;483.94;-2.37
39;0;13826959;1681322159551;1681322177026;1;0.03;423.50;0.72
40;4;1684444;1681322160088;1681322173494;8;0.26;390.48;-4.83
41;3;744456;1681322163493;1681322174028;1;0.01;395.48;-3.50
42;1;800301;1681322164027;1681322174028;2;0.07;395.48;-1.08
43;4;64650;1681322166551;1681322176552;3;0.05;419.06;-4.99
44;3;53523;1681322166551;1681322176552;2;0.06;419.06;-3.62
45;1;354026;1681322166552;1681322176552;10;0.28;419.06;-1.18
46;4;3440781;1681322167026;1681322178883;8;0.35;440.85;-5.18
47;3;4532587;1681322168883;1681322179496;4;0.18;446.57;-3.66
48;1;506613;1681322168883;1681322176552;2;0.07;419.06;-0.56
49;1;3799689;1681322169494;1681322183495;6;0.17;483.94;-0.74
50;4;1051947;1681322170469;1681322183495;1;0.04;483.94;-4.50
51;0;516513;1681322173494;1681322183495;1;0.09;483.94;0.32
52;3;16041526;1681322173970;1681322196552;2;0.13;605.97;-3.70
53;1;6268901;1681322174029;1681322186552;1;0.07;512.51;-0.68
54;0;2570444;1681322174034;1681322186552;5;0.11;512.51;0.77
55;4;573340;1681322176551;1681322186552;3;0.13;512.51;-4.78
56;0;2393245;1681322176685;1681322188884;1;0.03;534.31;0.12
57;2;983481;1681322177559;1681322188884;2;0.06;534.31;-2.51
58;4;1530052;1681322178883;1681322188884;1;0.04;534.31;-4.98
59;2;10637167;1681322178883;1681322193496;1;0.06;577.41;-2.01
60;1;1629297;1681322180489;1681322190491;1;0.05;549.33;-0.91
61;0;242721;1681322183495;1681322193496;1;0.06;577.41;0.56
62;4;854663;1681322183495;1681322193496;1;0.05;577.41;-4.75
63;1;2384710;1681322183495;1681322194422;2;0.13;586.07;-0.81
64;4;5571;1681322184420;1681322194422;1;0.05;586.07;-4.49
65;0;4342848;1681322186552;1681322194422;1;0.03;586.07;0.88
66;1;1832782;1681322186552;1681322198605;1;0.02;625.16;-0.37
67;4;3600547;1681322187560;1681322199218;1;0.01;630.89;-4.98
68;2;4293860;1681322188605;1681322199218;1;0.03;630.89;-2.04
69;3;1550737;1681322189216;1681322199218;1;0.06;630.89;-3.45
70;1;528585;1681322190491;1681322200492;1;0.02;642.79;-0.50
71;0;9264074;1681322191124;1681322201125;1;0.13;648.71;0.12
