id;agent_id;nonce;time_creation;time_edged;weight;confidence;x;y
0;0;0;1681322831777;1681322831777;55;1.00;0.00;0.00
1;2;1384855;1681322831777;1681322838256;54;1.00;1.00;-2.07
2;0;4044002;1681322831777;1681322850045;50;1.00;2.82;0.81
3;3;3819060;1681322831777;1681322849136;51;1.00;2.68;-3.84
4;1;3484555;1681322831777;1681322847735;52;1.00;2.46;-1.08
5;4;2536968;1681322831777;1681322843525;53;1.00;1.81;-4.76
6;2;5233399;1681322838256;1681322861067;48;1.00;4.52;-2.48
7;4;11056629;1681322843525;1681322895990;4;0.75;9.91;-4.92
8;1;12379407;1681322847735;1681322901316;3;0.75;10.73;-0.62
9;3;3014310;1681322849136;1681322861963;47;1.00;4.66;-3.67
10;0;2338875;1681322850045;1681322860065;49;1.00;4.37;0.22
11;0;523709;1681322860065;1681322862198;12;1.00;4.70;0.30
12;2;5705254;1681322861066;1681322885993;16;1.00;8.37;-1.73
13;3;1503921;1681322861963;1681322870066;17;1.00;5.91;-2.94
14;0;545103;1681322862198;1681322864574;17;1.00;5.06;0.87
15;0;9983469;1681322864574;1681322906973;2;0.75;11.61;0.61
16;3;5190209;1681322868621;1681322895990;5;0.75;9.91;-3.07
17;2;709157;1681322885992;1681322889051;5;0.75;8.84;-1.90
18;2;2638695;1681322889051;1681322900911;4;0.75;10.67;-2.47
19;4;729135;1681322890914;1681322895990;1;0.25;9.91;-5.00
20;3;13932211;1681322891238;1681322943471;1;0.75;17.24;-3.27
