length;quantity
17;53486
25;3413350
10;94
35;2647
37;6
18;93037
16;27744
24;1606410
14;5987
29;5858099
31;1559236
30;3474082
15;13877
11;358
36;187
9;28
22;273191
28;7537044
21;188445
23;629638
13;2359
12;968
33;128835
20;165293
19;135700
32;523294
34;22535
26;5711622
27;7454576
