<?xml version="1.0" encoding="UTF-8" standalone="no"?>
<!DOCTYPE svg PUBLIC "-//W3C//DTD SVG 1.1//EN"
 "http://www.w3.org/Graphics/SVG/1.1/DTD/svg11.dtd">
<!-- Generated by graphviz version 5.0.1 (20220820.1526)
 -->
<!-- Title: network Pages: 1 -->
<svg width="1417pt" height="634pt"
 viewBox="0.00 0.00 1417.00 634.00" xmlns="http://www.w3.org/2000/svg" xmlns:xlink="http://www.w3.org/1999/xlink">
<g id="graph0" class="graph" transform="scale(1 1) rotate(0) translate(4 630)">
<title>network</title>
<polygon fill="white" stroke="none" points="-4,4 -4,-630 1413,-630 1413,4 -4,4"/>
<!-- 0 -->
<g id="node1" class="node">
<title>0</title>
<ellipse fill="none" stroke="black" cx="29.45" cy="-366.73" rx="28.98" ry="37.45"/>
<text text-anchor="middle" x="29.45" y="-378.03" font-family="Times,serif" font-size="14.00">0</text>
<text text-anchor="middle" x="29.45" y="-363.03" font-family="Times,serif" font-size="14.00">332</text>
<text text-anchor="middle" x="29.45" y="-348.03" font-family="Times,serif" font-size="14.00">1.00</text>
</g>
<!-- 1 -->
<g id="node2" class="node">
<title>1</title>
<ellipse fill="none" stroke="#3889a2" cx="228.9" cy="-259.06" rx="28.98" ry="37.45"/>
<text text-anchor="middle" x="228.9" y="-270.36" font-family="Times,serif" font-size="14.00">1</text>
<text text-anchor="middle" x="228.9" y="-255.36" font-family="Times,serif" font-size="14.00">46</text>
<text text-anchor="middle" x="228.9" y="-240.36" font-family="Times,serif" font-size="14.00">0.55</text>
</g>
<!-- 1&#45;&gt;0 -->
<g id="edge1" class="edge">
<title>1&#45;&gt;0</title>
<path fill="none" stroke="black" d="M202,-273.58C166.66,-292.66 104.49,-326.22 65.22,-347.42"/>
<polygon fill="black" stroke="black" points="63.38,-344.44 56.24,-352.27 66.7,-350.6 63.38,-344.44"/>
</g>
<!-- 2 -->
<g id="node3" class="node">
<title>2</title>
<ellipse fill="none" stroke="#a441fd" cx="162.87" cy="-285.08" rx="28.98" ry="37.45"/>
<text text-anchor="middle" x="162.87" y="-296.38" font-family="Times,serif" font-size="14.00">2</text>
<text text-anchor="middle" x="162.87" y="-281.38" font-family="Times,serif" font-size="14.00">26</text>
<text text-anchor="middle" x="162.87" y="-266.38" font-family="Times,serif" font-size="14.00">0.55</text>
</g>
<!-- 2&#45;&gt;0 -->
<g id="edge2" class="edge">
<title>2&#45;&gt;0</title>
<path fill="none" stroke="black" d="M136.51,-301.21C115.86,-313.85 86.95,-331.54 64.38,-345.36"/>
<polygon fill="black" stroke="black" points="62.46,-342.43 55.75,-350.63 66.11,-348.4 62.46,-342.43"/>
</g>
<!-- 3 -->
<g id="node4" class="node">
<title>3</title>
<ellipse fill="none" stroke="#3a513c" cx="195.11" cy="-432.61" rx="28.98" ry="37.45"/>
<text text-anchor="middle" x="195.11" y="-443.91" font-family="Times,serif" font-size="14.00">3</text>
<text text-anchor="middle" x="195.11" y="-428.91" font-family="Times,serif" font-size="14.00">17</text>
<text text-anchor="middle" x="195.11" y="-413.91" font-family="Times,serif" font-size="14.00">0.44</text>
</g>
<!-- 3&#45;&gt;0 -->
<g id="edge3" class="edge">
<title>3&#45;&gt;0</title>
<path fill="none" stroke="black" d="M167.39,-421.58C139.79,-410.61 97.27,-393.7 66.73,-381.56"/>
<polygon fill="black" stroke="black" points="67.85,-378.24 57.27,-377.79 65.27,-384.74 67.85,-378.24"/>
</g>
<!-- 4 -->
<g id="node5" class="node">
<title>4</title>
<ellipse fill="none" stroke="#978752" cx="96.81" cy="-329.57" rx="28.98" ry="37.45"/>
<text text-anchor="middle" x="96.81" y="-340.87" font-family="Times,serif" font-size="14.00">4</text>
<text text-anchor="middle" x="96.81" y="-325.87" font-family="Times,serif" font-size="14.00">35</text>
<text text-anchor="middle" x="96.81" y="-310.87" font-family="Times,serif" font-size="14.00">0.68</text>
</g>
<!-- 4&#45;&gt;0 -->
<g id="edge4" class="edge">
<title>4&#45;&gt;0</title>
<path fill="none" stroke="black" d="M69.8,-344.47C68.29,-345.3 66.76,-346.15 65.23,-346.99"/>
<polygon fill="black" stroke="black" points="63.53,-343.93 56.46,-351.83 66.91,-350.06 63.53,-343.93"/>
</g>
<!-- 5 -->
<g id="node6" class="node">
<title>5</title>
<ellipse fill="none" stroke="#1853a6" cx="295.64" cy="-263.83" rx="28.98" ry="37.45"/>
<text text-anchor="middle" x="295.64" y="-275.13" font-family="Times,serif" font-size="14.00">5</text>
<text text-anchor="middle" x="295.64" y="-260.13" font-family="Times,serif" font-size="14.00">19</text>
<text text-anchor="middle" x="295.64" y="-245.13" font-family="Times,serif" font-size="14.00">0.39</text>
</g>
<!-- 5&#45;&gt;0 -->
<g id="edge5" class="edge">
<title>5&#45;&gt;0</title>
<path fill="none" stroke="black" d="M267.66,-274.65C219.53,-293.25 121.05,-331.32 67.01,-352.21"/>
<polygon fill="black" stroke="black" points="65.52,-349.03 57.46,-355.9 68.05,-355.56 65.52,-349.03"/>
</g>
<!-- 6 -->
<g id="node7" class="node">
<title>6</title>
<ellipse fill="none" stroke="#978752" cx="321.73" cy="-512.81" rx="28.98" ry="37.45"/>
<text text-anchor="middle" x="321.73" y="-524.11" font-family="Times,serif" font-size="14.00">6</text>
<text text-anchor="middle" x="321.73" y="-509.11" font-family="Times,serif" font-size="14.00">26</text>
<text text-anchor="middle" x="321.73" y="-494.11" font-family="Times,serif" font-size="14.00">0.41</text>
</g>
<!-- 6&#45;&gt;0 -->
<g id="edge6" class="edge">
<title>6&#45;&gt;0</title>
<path fill="none" stroke="black" d="M294.49,-499.2C241.63,-472.78 125.1,-414.54 65.74,-384.87"/>
<polygon fill="black" stroke="black" points="67.23,-381.7 56.72,-380.36 64.1,-387.96 67.23,-381.7"/>
</g>
<!-- 7 -->
<g id="node8" class="node">
<title>7</title>
<ellipse fill="none" stroke="#a441fd" cx="322.38" cy="-429.83" rx="28.98" ry="37.45"/>
<text text-anchor="middle" x="322.38" y="-441.13" font-family="Times,serif" font-size="14.00">7</text>
<text text-anchor="middle" x="322.38" y="-426.13" font-family="Times,serif" font-size="14.00">14</text>
<text text-anchor="middle" x="322.38" y="-411.13" font-family="Times,serif" font-size="14.00">0.48</text>
</g>
<!-- 7&#45;&gt;0 -->
<g id="edge7" class="edge">
<title>7&#45;&gt;0</title>
<path fill="none" stroke="black" d="M293.76,-423.66C240.82,-412.26 127.59,-387.87 67.97,-375.03"/>
<polygon fill="black" stroke="black" points="68.7,-371.61 58.19,-372.92 67.23,-378.45 68.7,-371.61"/>
</g>
<!-- 8 -->
<g id="node9" class="node">
<title>8</title>
<ellipse fill="none" stroke="#3889a2" cx="229.64" cy="-342.08" rx="28.98" ry="37.45"/>
<text text-anchor="middle" x="229.64" y="-353.38" font-family="Times,serif" font-size="14.00">8</text>
<text text-anchor="middle" x="229.64" y="-338.38" font-family="Times,serif" font-size="14.00">49</text>
<text text-anchor="middle" x="229.64" y="-323.38" font-family="Times,serif" font-size="14.00">0.69</text>
</g>
<!-- 8&#45;&gt;0 -->
<g id="edge8" class="edge">
<title>8&#45;&gt;0</title>
<path fill="none" stroke="black" d="M200.53,-345.67C165.84,-349.94 107.71,-357.1 68.97,-361.87"/>
<polygon fill="black" stroke="black" points="68.09,-358.45 58.6,-363.14 68.95,-365.4 68.09,-358.45"/>
</g>
<!-- 9 -->
<g id="node10" class="node">
<title>9</title>
<ellipse fill="none" stroke="#3889a2" cx="259.82" cy="-176.05" rx="28.98" ry="37.45"/>
<text text-anchor="middle" x="259.82" y="-187.35" font-family="Times,serif" font-size="14.00">9</text>
<text text-anchor="middle" x="259.82" y="-172.35" font-family="Times,serif" font-size="14.00">17</text>
<text text-anchor="middle" x="259.82" y="-157.35" font-family="Times,serif" font-size="14.00">0.38</text>
</g>
<!-- 9&#45;&gt;0 -->
<g id="edge9" class="edge">
<title>9&#45;&gt;0</title>
<path fill="none" stroke="black" d="M235.17,-196.46C193.34,-231.08 108.48,-301.32 61.89,-339.88"/>
<polygon fill="black" stroke="black" points="59.4,-337.4 53.93,-346.47 63.86,-342.79 59.4,-337.4"/>
</g>
<!-- 10 -->
<g id="node11" class="node">
<title>10</title>
<ellipse fill="none" stroke="#3a513c" cx="396.23" cy="-562.83" rx="28.98" ry="37.45"/>
<text text-anchor="middle" x="396.23" y="-574.13" font-family="Times,serif" font-size="14.00">10</text>
<text text-anchor="middle" x="396.23" y="-559.13" font-family="Times,serif" font-size="14.00">18</text>
<text text-anchor="middle" x="396.23" y="-544.13" font-family="Times,serif" font-size="14.00">0.43</text>
</g>
<!-- 10&#45;&gt;1 -->
<g id="edge10" class="edge">
<title>10&#45;&gt;1</title>
<path fill="none" stroke="black" d="M379.26,-532.03C348.76,-476.65 284.68,-360.33 250.87,-298.95"/>
<polygon fill="black" stroke="black" points="253.8,-297.01 245.91,-289.94 247.67,-300.39 253.8,-297.01"/>
</g>
<!-- 10&#45;&gt;4 -->
<g id="edge11" class="edge">
<title>10&#45;&gt;4</title>
<path fill="none" stroke="black" d="M371.21,-543.34C317.38,-501.4 190.54,-402.59 130.04,-355.46"/>
<polygon fill="black" stroke="black" points="132,-352.55 121.96,-349.16 127.7,-358.07 132,-352.55"/>
</g>
<!-- 11 -->
<g id="node12" class="node">
<title>11</title>
<ellipse fill="none" stroke="#1853a6" cx="370.16" cy="-249.71" rx="28.98" ry="37.45"/>
<text text-anchor="middle" x="370.16" y="-261.01" font-family="Times,serif" font-size="14.00">11</text>
<text text-anchor="middle" x="370.16" y="-246.01" font-family="Times,serif" font-size="14.00">25</text>
<text text-anchor="middle" x="370.16" y="-231.01" font-family="Times,serif" font-size="14.00">0.48</text>
</g>
<!-- 11&#45;&gt;0 -->
<g id="edge12" class="edge">
<title>11&#45;&gt;0</title>
<path fill="none" stroke="black" d="M341.99,-259.39C280.9,-280.37 136.21,-330.06 67.26,-353.75"/>
<polygon fill="black" stroke="black" points="65.98,-350.49 57.65,-357.05 68.25,-357.11 65.98,-350.49"/>
</g>
<!-- 12 -->
<g id="node13" class="node">
<title>12</title>
<ellipse fill="none" stroke="#a441fd" cx="318.26" cy="-346.83" rx="28.98" ry="37.45"/>
<text text-anchor="middle" x="318.26" y="-358.13" font-family="Times,serif" font-size="14.00">12</text>
<text text-anchor="middle" x="318.26" y="-343.13" font-family="Times,serif" font-size="14.00">17</text>
<text text-anchor="middle" x="318.26" y="-328.13" font-family="Times,serif" font-size="14.00">0.48</text>
</g>
<!-- 12&#45;&gt;0 -->
<g id="edge13" class="edge">
<title>12&#45;&gt;0</title>
<path fill="none" stroke="black" d="M289.25,-348.83C237.03,-352.43 127.19,-360 68.45,-364.04"/>
<polygon fill="black" stroke="black" points="68.18,-360.55 58.45,-364.73 68.66,-367.54 68.18,-360.55"/>
</g>
<!-- 13 -->
<g id="node14" class="node">
<title>13</title>
<ellipse fill="none" stroke="#978752" cx="559.22" cy="-429.56" rx="28.98" ry="37.45"/>
<text text-anchor="middle" x="559.22" y="-440.86" font-family="Times,serif" font-size="14.00">13</text>
<text text-anchor="middle" x="559.22" y="-425.86" font-family="Times,serif" font-size="14.00">8</text>
<text text-anchor="middle" x="559.22" y="-410.86" font-family="Times,serif" font-size="14.00">0.27</text>
</g>
<!-- 13&#45;&gt;7 -->
<g id="edge14" class="edge">
<title>13&#45;&gt;7</title>
<path fill="none" stroke="black" d="M530.18,-429.59C487.92,-429.64 409.35,-429.73 361.87,-429.78"/>
<polygon fill="black" stroke="black" points="361.66,-426.28 351.66,-429.79 361.66,-433.28 361.66,-426.28"/>
</g>
<!-- 13&#45;&gt;11 -->
<g id="edge15" class="edge">
<title>13&#45;&gt;11</title>
<path fill="none" stroke="black" d="M535.65,-407.15C501.74,-374.88 439.1,-315.3 401.37,-279.41"/>
<polygon fill="black" stroke="black" points="403.38,-276.48 393.72,-272.13 398.55,-281.56 403.38,-276.48"/>
</g>
<!-- 14 -->
<g id="node15" class="node">
<title>14</title>
<ellipse fill="none" stroke="#3889a2" cx="402.84" cy="-124.87" rx="28.98" ry="37.45"/>
<text text-anchor="middle" x="402.84" y="-136.17" font-family="Times,serif" font-size="14.00">14</text>
<text text-anchor="middle" x="402.84" y="-121.17" font-family="Times,serif" font-size="14.00">10</text>
<text text-anchor="middle" x="402.84" y="-106.17" font-family="Times,serif" font-size="14.00">0.35</text>
</g>
<!-- 14&#45;&gt;0 -->
<g id="edge16" class="edge">
<title>14&#45;&gt;0</title>
<path fill="none" stroke="black" d="M376.88,-141.68C311.25,-184.2 138.62,-296.02 64.3,-344.16"/>
<polygon fill="black" stroke="black" points="62.22,-341.33 55.73,-349.71 66.03,-347.21 62.22,-341.33"/>
</g>
<!-- 15 -->
<g id="node16" class="node">
<title>15</title>
<ellipse fill="none" stroke="#a441fd" cx="388.42" cy="-457.11" rx="28.98" ry="37.45"/>
<text text-anchor="middle" x="388.42" y="-468.41" font-family="Times,serif" font-size="14.00">15</text>
<text text-anchor="middle" x="388.42" y="-453.41" font-family="Times,serif" font-size="14.00">20</text>
<text text-anchor="middle" x="388.42" y="-438.41" font-family="Times,serif" font-size="14.00">0.68</text>
</g>
<!-- 15&#45;&gt;0 -->
<g id="edge17" class="edge">
<title>15&#45;&gt;0</title>
<path fill="none" stroke="black" d="M359.95,-449.94C295.94,-433.82 140.59,-394.71 68.01,-376.44"/>
<polygon fill="black" stroke="black" points="68.47,-372.95 57.92,-373.9 66.76,-379.74 68.47,-372.95"/>
</g>
<!-- 16 -->
<g id="node17" class="node">
<title>16</title>
<ellipse fill="none" stroke="#a441fd" cx="443.07" cy="-368.98" rx="28.98" ry="37.45"/>
<text text-anchor="middle" x="443.07" y="-380.28" font-family="Times,serif" font-size="14.00">16</text>
<text text-anchor="middle" x="443.07" y="-365.28" font-family="Times,serif" font-size="14.00">10</text>
<text text-anchor="middle" x="443.07" y="-350.28" font-family="Times,serif" font-size="14.00">0.29</text>
</g>
<!-- 16&#45;&gt;0 -->
<g id="edge18" class="edge">
<title>16&#45;&gt;0</title>
<path fill="none" stroke="black" d="M413.98,-368.83C341.23,-368.43 151.29,-367.4 68.72,-366.95"/>
<polygon fill="black" stroke="black" points="68.52,-363.44 58.5,-366.89 68.48,-370.44 68.52,-363.44"/>
</g>
<!-- 17 -->
<g id="node18" class="node">
<title>17</title>
<ellipse fill="none" stroke="#1853a6" cx="457.65" cy="-207.86" rx="28.98" ry="37.45"/>
<text text-anchor="middle" x="457.65" y="-219.16" font-family="Times,serif" font-size="14.00">17</text>
<text text-anchor="middle" x="457.65" y="-204.16" font-family="Times,serif" font-size="14.00">16</text>
<text text-anchor="middle" x="457.65" y="-189.16" font-family="Times,serif" font-size="14.00">0.43</text>
</g>
<!-- 17&#45;&gt;2 -->
<g id="edge19" class="edge">
<title>17&#45;&gt;2</title>
<path fill="none" stroke="black" d="M429.12,-215.33C375.85,-229.29 261.25,-259.31 201.26,-275.03"/>
<polygon fill="black" stroke="black" points="200.21,-271.68 191.42,-277.6 201.98,-278.46 200.21,-271.68"/>
</g>
<!-- 17&#45;&gt;4 -->
<g id="edge20" class="edge">
<title>17&#45;&gt;4</title>
<path fill="none" stroke="black" d="M429.34,-217.41C364.91,-239.14 207.34,-292.29 134.66,-316.8"/>
<polygon fill="black" stroke="black" points="133.35,-313.55 124.99,-320.06 135.58,-320.18 133.35,-313.55"/>
</g>
<!-- 18 -->
<g id="node19" class="node">
<title>18</title>
<ellipse fill="none" stroke="#a441fd" cx="509.11" cy="-346.6" rx="28.98" ry="37.45"/>
<text text-anchor="middle" x="509.11" y="-357.9" font-family="Times,serif" font-size="14.00">18</text>
<text text-anchor="middle" x="509.11" y="-342.9" font-family="Times,serif" font-size="14.00">16</text>
<text text-anchor="middle" x="509.11" y="-327.9" font-family="Times,serif" font-size="14.00">0.44</text>
</g>
<!-- 18&#45;&gt;3 -->
<g id="edge21" class="edge">
<title>18&#45;&gt;3</title>
<path fill="none" stroke="black" d="M480.69,-354.38C424.09,-369.89 297.24,-404.63 233.38,-422.13"/>
<polygon fill="black" stroke="black" points="232.41,-418.76 223.7,-424.78 234.26,-425.51 232.41,-418.76"/>
</g>
<!-- 18&#45;&gt;8 -->
<g id="edge22" class="edge">
<title>18&#45;&gt;8</title>
<path fill="none" stroke="black" d="M479.99,-346.13C429.46,-345.31 325.48,-343.63 268.72,-342.71"/>
<polygon fill="black" stroke="black" points="268.75,-339.21 258.7,-342.55 268.64,-346.21 268.75,-339.21"/>
</g>
<!-- 19 -->
<g id="node20" class="node">
<title>19</title>
<ellipse fill="none" stroke="#3889a2" cx="691.61" cy="-94.84" rx="28.98" ry="37.45"/>
<text text-anchor="middle" x="691.61" y="-106.14" font-family="Times,serif" font-size="14.00">19</text>
<text text-anchor="middle" x="691.61" y="-91.14" font-family="Times,serif" font-size="14.00">4</text>
<text text-anchor="middle" x="691.61" y="-76.14" font-family="Times,serif" font-size="14.00">0.12</text>
</g>
<!-- 19&#45;&gt;5 -->
<g id="edge23" class="edge">
<title>19&#45;&gt;5</title>
<path fill="none" stroke="black" d="M663.77,-106.72C593.96,-136.51 411.47,-214.4 332.71,-248.01"/>
<polygon fill="black" stroke="black" points="331.01,-244.93 323.19,-252.07 333.76,-251.37 331.01,-244.93"/>
</g>
<!-- 19&#45;&gt;13 -->
<g id="edge24" class="edge">
<title>19&#45;&gt;13</title>
<path fill="none" stroke="black" d="M678.31,-128.46C654.12,-189.62 602.98,-318.93 576.27,-386.46"/>
<polygon fill="black" stroke="black" points="572.93,-385.37 572.51,-395.96 579.44,-387.95 572.93,-385.37"/>
</g>
<!-- 20 -->
<g id="node21" class="node">
<title>20</title>
<ellipse fill="none" stroke="#1853a6" cx="523.69" cy="-263.28" rx="28.98" ry="37.45"/>
<text text-anchor="middle" x="523.69" y="-274.58" font-family="Times,serif" font-size="14.00">20</text>
<text text-anchor="middle" x="523.69" y="-259.58" font-family="Times,serif" font-size="14.00">9</text>
<text text-anchor="middle" x="523.69" y="-244.58" font-family="Times,serif" font-size="14.00">0.27</text>
</g>
<!-- 20&#45;&gt;1 -->
<g id="edge25" class="edge">
<title>20&#45;&gt;1</title>
<path fill="none" stroke="black" d="M494.62,-262.86C441.45,-262.1 328.5,-260.49 268.42,-259.63"/>
<polygon fill="black" stroke="black" points="268.24,-256.13 258.19,-259.48 268.14,-263.13 268.24,-256.13"/>
</g>
<!-- 20&#45;&gt;2 -->
<g id="edge26" class="edge">
<title>20&#45;&gt;2</title>
<path fill="none" stroke="black" d="M494.47,-265.05C429.87,-268.95 274.88,-278.31 202,-282.72"/>
<polygon fill="black" stroke="black" points="201.63,-279.23 191.86,-283.33 202.05,-286.22 201.63,-279.23"/>
</g>
<!-- 21 -->
<g id="node22" class="node">
<title>21</title>
<ellipse fill="none" stroke="#3a513c" cx="470.92" cy="-523.52" rx="28.98" ry="37.45"/>
<text text-anchor="middle" x="470.92" y="-534.82" font-family="Times,serif" font-size="14.00">21</text>
<text text-anchor="middle" x="470.92" y="-519.82" font-family="Times,serif" font-size="14.00">5</text>
<text text-anchor="middle" x="470.92" y="-504.82" font-family="Times,serif" font-size="14.00">0.21</text>
</g>
<!-- 21&#45;&gt;7 -->
<g id="edge27" class="edge">
<title>21&#45;&gt;7</title>
<path fill="none" stroke="black" d="M444.71,-506.98C420.46,-491.69 384.25,-468.85 357.51,-451.98"/>
<polygon fill="black" stroke="black" points="359.16,-448.88 348.83,-446.51 355.42,-454.8 359.16,-448.88"/>
</g>
<!-- 21&#45;&gt;8 -->
<g id="edge28" class="edge">
<title>21&#45;&gt;8</title>
<path fill="none" stroke="black" d="M445.56,-504.44C401.75,-471.5 311.93,-403.96 263.08,-367.23"/>
<polygon fill="black" stroke="black" points="265.13,-364.39 255.03,-361.17 260.92,-369.98 265.13,-364.39"/>
</g>
<!-- 22 -->
<g id="node23" class="node">
<title>22</title>
<ellipse fill="none" stroke="#1853a6" cx="537.74" cy="-179.78" rx="28.98" ry="37.45"/>
<text text-anchor="middle" x="537.74" y="-191.08" font-family="Times,serif" font-size="14.00">22</text>
<text text-anchor="middle" x="537.74" y="-176.08" font-family="Times,serif" font-size="14.00">18</text>
<text text-anchor="middle" x="537.74" y="-161.08" font-family="Times,serif" font-size="14.00">0.34</text>
</g>
<!-- 22&#45;&gt;1 -->
<g id="edge29" class="edge">
<title>22&#45;&gt;1</title>
<path fill="none" stroke="black" d="M509.24,-187.09C453.65,-201.37 330.69,-232.93 267.72,-249.1"/>
<polygon fill="black" stroke="black" points="266.6,-245.77 257.78,-251.65 268.34,-252.55 266.6,-245.77"/>
</g>
<!-- 22&#45;&gt;6 -->
<g id="edge30" class="edge">
<title>22&#45;&gt;6</title>
<path fill="none" stroke="black" d="M518.95,-208.75C479.85,-269.03 389.77,-407.9 346.21,-475.07"/>
<polygon fill="black" stroke="black" points="343.13,-473.38 340.63,-483.67 349.01,-477.18 343.13,-473.38"/>
</g>
<!-- 23 -->
<g id="node24" class="node">
<title>23</title>
<ellipse fill="none" stroke="#3a513c" cx="548.2" cy="-519.63" rx="28.98" ry="37.45"/>
<text text-anchor="middle" x="548.2" y="-530.93" font-family="Times,serif" font-size="14.00">23</text>
<text text-anchor="middle" x="548.2" y="-515.93" font-family="Times,serif" font-size="14.00">15</text>
<text text-anchor="middle" x="548.2" y="-500.93" font-family="Times,serif" font-size="14.00">0.43</text>
</g>
<!-- 23&#45;&gt;8 -->
<g id="edge31" class="edge">
<title>23&#45;&gt;8</title>
<path fill="none" stroke="black" d="M521.31,-504.64C463.98,-472.69 329.71,-397.86 265.32,-361.97"/>
<polygon fill="black" stroke="black" points="266.78,-358.78 256.35,-356.96 263.38,-364.89 266.78,-358.78"/>
</g>
<!-- 23&#45;&gt;17 -->
<g id="edge32" class="edge">
<title>23&#45;&gt;17</title>
<path fill="none" stroke="black" d="M537.99,-484.47C521.48,-427.63 488.95,-315.62 470.76,-252.98"/>
<polygon fill="black" stroke="black" points="474.11,-251.99 467.96,-243.37 467.39,-253.95 474.11,-251.99"/>
</g>
<!-- 24 -->
<g id="node25" class="node">
<title>24</title>
<ellipse fill="none" stroke="#a441fd" cx="589.7" cy="-326.04" rx="28.98" ry="37.45"/>
<text text-anchor="middle" x="589.7" y="-337.34" font-family="Times,serif" font-size="14.00">24</text>
<text text-anchor="middle" x="589.7" y="-322.34" font-family="Times,serif" font-size="14.00">16</text>
<text text-anchor="middle" x="589.7" y="-307.34" font-family="Times,serif" font-size="14.00">0.48</text>
</g>
<!-- 24&#45;&gt;11 -->
<g id="edge33" class="edge">
<title>24&#45;&gt;11</title>
<path fill="none" stroke="black" d="M561.45,-316.22C522.34,-302.62 451.6,-278.03 407.97,-262.86"/>
<polygon fill="black" stroke="black" points="408.9,-259.48 398.3,-259.5 406.6,-266.09 408.9,-259.48"/>
</g>
<!-- 24&#45;&gt;12 -->
<g id="edge34" class="edge">
<title>24&#45;&gt;12</title>
<path fill="none" stroke="black" d="M560.65,-328.26C511.7,-332.01 412.73,-339.6 357.6,-343.82"/>
<polygon fill="black" stroke="black" points="357.22,-340.34 347.51,-344.59 357.75,-347.32 357.22,-340.34"/>
</g>
<!-- 25 -->
<g id="node26" class="node">
<title>25</title>
<ellipse fill="none" stroke="#1853a6" cx="603.8" cy="-181.88" rx="28.98" ry="37.45"/>
<text text-anchor="middle" x="603.8" y="-193.18" font-family="Times,serif" font-size="14.00">25</text>
<text text-anchor="middle" x="603.8" y="-178.18" font-family="Times,serif" font-size="14.00">9</text>
<text text-anchor="middle" x="603.8" y="-163.18" font-family="Times,serif" font-size="14.00">0.35</text>
</g>
<!-- 25&#45;&gt;8 -->
<g id="edge35" class="edge">
<title>25&#45;&gt;8</title>
<path fill="none" stroke="black" d="M575.99,-193.79C509.61,-222.21 341.93,-294.01 266.92,-326.12"/>
<polygon fill="black" stroke="black" points="265.21,-323.05 257.39,-330.2 267.96,-329.48 265.21,-323.05"/>
</g>
<!-- 25&#45;&gt;14 -->
<g id="edge36" class="edge">
<title>25&#45;&gt;14</title>
<path fill="none" stroke="black" d="M575.44,-173.83C540.3,-163.87 480.31,-146.84 441.12,-135.73"/>
<polygon fill="black" stroke="black" points="441.96,-132.33 431.39,-132.97 440.05,-139.06 441.96,-132.33"/>
</g>
<!-- 26 -->
<g id="node27" class="node">
<title>26</title>
<ellipse fill="none" stroke="#978752" cx="625.24" cy="-471.91" rx="28.98" ry="37.45"/>
<text text-anchor="middle" x="625.24" y="-483.21" font-family="Times,serif" font-size="14.00">26</text>
<text text-anchor="middle" x="625.24" y="-468.21" font-family="Times,serif" font-size="14.00">1</text>
<text text-anchor="middle" x="625.24" y="-453.21" font-family="Times,serif" font-size="14.00">0.01</text>
</g>
<!-- 26&#45;&gt;5 -->
<g id="edge37" class="edge">
<title>26&#45;&gt;5</title>
<path fill="none" stroke="black" d="M599.1,-455.41C540.2,-418.23 397.1,-327.88 330.64,-285.92"/>
<polygon fill="black" stroke="black" points="332.11,-282.71 321.78,-280.33 328.37,-288.63 332.11,-282.71"/>
</g>
<!-- 26&#45;&gt;8 -->
<g id="edge38" class="edge">
<title>26&#45;&gt;8</title>
<path fill="none" stroke="black" d="M597.1,-462.68C527.36,-439.79 346.44,-380.41 267.46,-354.49"/>
<polygon fill="black" stroke="black" points="268.49,-351.15 257.9,-351.36 266.31,-357.8 268.49,-351.15"/>
</g>
<!-- 27 -->
<g id="node28" class="node">
<title>27</title>
<ellipse fill="none" stroke="#a441fd" cx="678.46" cy="-317.6" rx="28.98" ry="37.45"/>
<text text-anchor="middle" x="678.46" y="-328.9" font-family="Times,serif" font-size="14.00">27</text>
<text text-anchor="middle" x="678.46" y="-313.9" font-family="Times,serif" font-size="14.00">2</text>
<text text-anchor="middle" x="678.46" y="-298.9" font-family="Times,serif" font-size="14.00">0.07</text>
</g>
<!-- 27&#45;&gt;8 -->
<g id="edge39" class="edge">
<title>27&#45;&gt;8</title>
<path fill="none" stroke="black" d="M649.36,-319.19C571.33,-323.45 357.41,-335.11 268.84,-339.95"/>
<polygon fill="black" stroke="black" points="268.47,-336.46 258.68,-340.5 268.86,-343.45 268.47,-336.46"/>
</g>
<!-- 27&#45;&gt;16 -->
<g id="edge40" class="edge">
<title>27&#45;&gt;16</title>
<path fill="none" stroke="black" d="M649.59,-323.9C607.39,-333.12 528.75,-350.28 481.63,-360.57"/>
<polygon fill="black" stroke="black" points="480.82,-357.16 471.8,-362.71 482.31,-364 480.82,-357.16"/>
</g>
<!-- 28 -->
<g id="node29" class="node">
<title>28</title>
<ellipse fill="none" stroke="#1853a6" cx="669.85" cy="-178.5" rx="28.98" ry="37.45"/>
<text text-anchor="middle" x="669.85" y="-189.8" font-family="Times,serif" font-size="14.00">28</text>
<text text-anchor="middle" x="669.85" y="-174.8" font-family="Times,serif" font-size="14.00">7</text>
<text text-anchor="middle" x="669.85" y="-159.8" font-family="Times,serif" font-size="14.00">0.21</text>
</g>
<!-- 28&#45;&gt;6 -->
<g id="edge41" class="edge">
<title>28&#45;&gt;6</title>
<path fill="none" stroke="black" d="M646.47,-200.95C585.4,-259.59 421.12,-417.36 352.5,-483.26"/>
<polygon fill="black" stroke="black" points="349.8,-481 345.01,-490.46 354.64,-486.05 349.8,-481"/>
</g>
<!-- 29 -->
<g id="node30" class="node">
<title>29</title>
<ellipse fill="none" stroke="#1853a6" cx="756.63" cy="-220.66" rx="28.98" ry="37.45"/>
<text text-anchor="middle" x="756.63" y="-231.96" font-family="Times,serif" font-size="14.00">29</text>
<text text-anchor="middle" x="756.63" y="-216.96" font-family="Times,serif" font-size="14.00">5</text>
<text text-anchor="middle" x="756.63" y="-201.96" font-family="Times,serif" font-size="14.00">0.15</text>
</g>
<!-- 29&#45;&gt;10 -->
<g id="edge42" class="edge">
<title>29&#45;&gt;10</title>
<path fill="none" stroke="black" d="M733.26,-242.85C670.51,-302.43 498.26,-465.96 427.35,-533.28"/>
<polygon fill="black" stroke="black" points="424.86,-530.82 420.01,-540.24 429.67,-535.9 424.86,-530.82"/>
</g>
<!-- 29&#45;&gt;22 -->
<g id="edge43" class="edge">
<title>29&#45;&gt;22</title>
<path fill="none" stroke="black" d="M727.57,-215.23C688.7,-207.97 619.69,-195.08 576.45,-187.01"/>
<polygon fill="black" stroke="black" points="577.05,-183.56 566.58,-185.16 575.77,-190.44 577.05,-183.56"/>
</g>
<!-- 30 -->
<g id="node31" class="node">
<title>30</title>
<ellipse fill="none" stroke="#3a513c" cx="693.5" cy="-562.83" rx="28.98" ry="37.45"/>
<text text-anchor="middle" x="693.5" y="-574.13" font-family="Times,serif" font-size="14.00">30</text>
<text text-anchor="middle" x="693.5" y="-559.13" font-family="Times,serif" font-size="14.00">1</text>
<text text-anchor="middle" x="693.5" y="-544.13" font-family="Times,serif" font-size="14.00">0.03</text>
</g>
<!-- 30&#45;&gt;9 -->
<g id="edge44" class="edge">
<title>30&#45;&gt;9</title>
<path fill="none" stroke="black" d="M669.56,-541.49C596.2,-476.05 374.41,-278.25 291.53,-204.33"/>
<polygon fill="black" stroke="black" points="293.74,-201.61 283.95,-197.57 289.08,-206.84 293.74,-201.61"/>
</g>
<!-- 30&#45;&gt;16 -->
<g id="edge45" class="edge">
<title>30&#45;&gt;16</title>
<path fill="none" stroke="black" d="M668.57,-543.54C623.21,-508.43 527.2,-434.11 476.32,-394.73"/>
<polygon fill="black" stroke="black" points="478.31,-391.84 468.26,-388.49 474.03,-397.38 478.31,-391.84"/>
</g>
<!-- 31 -->
<g id="node32" class="node">
<title>31</title>
<ellipse fill="none" stroke="#978752" cx="691.25" cy="-461.01" rx="28.98" ry="37.45"/>
<text text-anchor="middle" x="691.25" y="-472.31" font-family="Times,serif" font-size="14.00">31</text>
<text text-anchor="middle" x="691.25" y="-457.31" font-family="Times,serif" font-size="14.00">3</text>
<text text-anchor="middle" x="691.25" y="-442.31" font-family="Times,serif" font-size="14.00">0.15</text>
</g>
<!-- 31&#45;&gt;10 -->
<g id="edge46" class="edge">
<title>31&#45;&gt;10</title>
<path fill="none" stroke="black" d="M663.23,-470.68C609.95,-489.06 494.03,-529.07 433.98,-549.8"/>
<polygon fill="black" stroke="black" points="432.8,-546.5 424.49,-553.07 435.09,-553.12 432.8,-546.5"/>
</g>
<!-- 31&#45;&gt;13 -->
<g id="edge47" class="edge">
<title>31&#45;&gt;13</title>
<path fill="none" stroke="black" d="M662.6,-454.18C643.57,-449.65 618.36,-443.65 597.6,-438.7"/>
<polygon fill="black" stroke="black" points="598.35,-435.28 587.81,-436.37 596.73,-442.09 598.35,-435.28"/>
</g>
<!-- 32 -->
<g id="node33" class="node">
<title>32</title>
<ellipse fill="none" stroke="#a441fd" cx="750.52" cy="-335.55" rx="28.98" ry="37.45"/>
<text text-anchor="middle" x="750.52" y="-346.85" font-family="Times,serif" font-size="14.00">32</text>
<text text-anchor="middle" x="750.52" y="-331.85" font-family="Times,serif" font-size="14.00">5</text>
<text text-anchor="middle" x="750.52" y="-316.85" font-family="Times,serif" font-size="14.00">0.11</text>
</g>
<!-- 32&#45;&gt;5 -->
<g id="edge48" class="edge">
<title>32&#45;&gt;5</title>
<path fill="none" stroke="black" d="M721.72,-331.01C643.01,-318.6 424.19,-284.1 334.62,-269.98"/>
<polygon fill="black" stroke="black" points="335.03,-266.5 324.61,-268.4 333.94,-273.41 335.03,-266.5"/>
</g>
<!-- 32&#45;&gt;22 -->
<g id="edge49" class="edge">
<title>32&#45;&gt;22</title>
<path fill="none" stroke="black" d="M725.27,-317.07C686.98,-289.04 614.17,-235.73 571.41,-204.43"/>
<polygon fill="black" stroke="black" points="573.42,-201.56 563.28,-198.48 569.28,-207.21 573.42,-201.56"/>
</g>
<!-- 33 -->
<g id="node34" class="node">
<title>33</title>
<ellipse fill="none" stroke="#3889a2" cx="757.65" cy="-99.38" rx="28.98" ry="37.45"/>
<text text-anchor="middle" x="757.65" y="-110.68" font-family="Times,serif" font-size="14.00">33</text>
<text text-anchor="middle" x="757.65" y="-95.68" font-family="Times,serif" font-size="14.00">3</text>
<text text-anchor="middle" x="757.65" y="-80.68" font-family="Times,serif" font-size="14.00">0.15</text>
</g>
<!-- 33&#45;&gt;5 -->
<g id="edge50" class="edge">
<title>33&#45;&gt;5</title>
<path fill="none" stroke="black" d="M729.45,-109.42C649.85,-137.75 423.43,-218.34 333.32,-250.42"/>
<polygon fill="black" stroke="black" points="332.02,-247.17 323.77,-253.82 334.36,-253.76 332.02,-247.17"/>
</g>
<!-- 33&#45;&gt;10 -->
<g id="edge51" class="edge">
<title>33&#45;&gt;10</title>
<path fill="none" stroke="black" d="M736.92,-125.96C675.16,-205.15 492.42,-439.47 423.21,-528.23"/>
<polygon fill="black" stroke="black" points="420.26,-526.31 416.87,-536.35 425.78,-530.62 420.26,-526.31"/>
</g>
<!-- 34 -->
<g id="node35" class="node">
<title>34</title>
<ellipse fill="none" stroke="#978752" cx="757.23" cy="-479.84" rx="28.98" ry="37.45"/>
<text text-anchor="middle" x="757.23" y="-491.14" font-family="Times,serif" font-size="14.00">34</text>
<text text-anchor="middle" x="757.23" y="-476.14" font-family="Times,serif" font-size="14.00">10</text>
<text text-anchor="middle" x="757.23" y="-461.14" font-family="Times,serif" font-size="14.00">0.29</text>
</g>
<!-- 34&#45;&gt;9 -->
<g id="edge52" class="edge">
<title>34&#45;&gt;9</title>
<path fill="none" stroke="black" d="M730.84,-463.73C647.37,-412.75 389.07,-254.99 294.76,-197.38"/>
<polygon fill="black" stroke="black" points="296.51,-194.35 286.15,-192.13 292.86,-200.33 296.51,-194.35"/>
</g>
<!-- 34&#45;&gt;18 -->
<g id="edge53" class="edge">
<title>34&#45;&gt;18</title>
<path fill="none" stroke="black" d="M730.2,-465.33C685.27,-441.2 595.19,-392.83 544.99,-365.87"/>
<polygon fill="black" stroke="black" points="546.57,-362.74 536.1,-361.09 543.26,-368.91 546.57,-362.74"/>
</g>
<!-- 35 -->
<g id="node36" class="node">
<title>35</title>
<ellipse fill="none" stroke="#3889a2" cx="823.72" cy="-65.87" rx="28.98" ry="37.45"/>
<text text-anchor="middle" x="823.72" y="-77.17" font-family="Times,serif" font-size="14.00">35</text>
<text text-anchor="middle" x="823.72" y="-62.17" font-family="Times,serif" font-size="14.00">1</text>
<text text-anchor="middle" x="823.72" y="-47.17" font-family="Times,serif" font-size="14.00">0.04</text>
</g>
<!-- 35&#45;&gt;16 -->
<g id="edge54" class="edge">
<title>35&#45;&gt;16</title>
<path fill="none" stroke="black" d="M798.74,-85.76C732.33,-138.64 551.34,-282.77 476.32,-342.5"/>
<polygon fill="black" stroke="black" points="473.78,-340.06 468.13,-349.02 478.14,-345.53 473.78,-340.06"/>
</g>
<!-- 35&#45;&gt;22 -->
<g id="edge55" class="edge">
<title>35&#45;&gt;22</title>
<path fill="none" stroke="black" d="M795.78,-77C744.1,-97.58 633.55,-141.62 575.35,-164.8"/>
<polygon fill="black" stroke="black" points="573.79,-161.65 565.79,-168.6 576.38,-168.15 573.79,-161.65"/>
</g>
<!-- 36 -->
<g id="node37" class="node">
<title>36</title>
<ellipse fill="none" stroke="#3a513c" cx="823.27" cy="-528.39" rx="28.98" ry="37.45"/>
<text text-anchor="middle" x="823.27" y="-539.69" font-family="Times,serif" font-size="14.00">36</text>
<text text-anchor="middle" x="823.27" y="-524.69" font-family="Times,serif" font-size="14.00">5</text>
<text text-anchor="middle" x="823.27" y="-509.69" font-family="Times,serif" font-size="14.00">0.20</text>
</g>
<!-- 36&#45;&gt;18 -->
<g id="edge56" class="edge">
<title>36&#45;&gt;18</title>
<path fill="none" stroke="black" d="M796.75,-513.05C740.35,-480.41 608.46,-404.09 544.77,-367.23"/>
<polygon fill="black" stroke="black" points="546.3,-364.07 535.89,-362.09 542.79,-370.13 546.3,-364.07"/>
</g>
<!-- 36&#45;&gt;24 -->
<g id="edge57" class="edge">
<title>36&#45;&gt;24</title>
<path fill="none" stroke="black" d="M799.15,-507.5C756.84,-470.84 669.24,-394.95 621.84,-353.88"/>
<polygon fill="black" stroke="black" points="623.88,-351.02 614.03,-347.12 619.3,-356.31 623.88,-351.02"/>
</g>
<!-- 37 -->
<g id="node38" class="node">
<title>37</title>
<ellipse fill="none" stroke="#1853a6" cx="823.65" cy="-170.75" rx="28.98" ry="37.45"/>
<text text-anchor="middle" x="823.65" y="-182.05" font-family="Times,serif" font-size="14.00">37</text>
<text text-anchor="middle" x="823.65" y="-167.05" font-family="Times,serif" font-size="14.00">5</text>
<text text-anchor="middle" x="823.65" y="-152.05" font-family="Times,serif" font-size="14.00">0.15</text>
</g>
<!-- 37&#45;&gt;15 -->
<g id="edge58" class="edge">
<title>37&#45;&gt;15</title>
<path fill="none" stroke="black" d="M797.72,-187.81C723.05,-236.94 507.42,-378.81 422.94,-434.39"/>
<polygon fill="black" stroke="black" points="420.91,-431.54 414.48,-439.96 424.76,-437.39 420.91,-431.54"/>
</g>
<!-- 37&#45;&gt;24 -->
<g id="edge59" class="edge">
<title>37&#45;&gt;24</title>
<path fill="none" stroke="black" d="M797.72,-187.97C755.38,-216.07 671.41,-271.8 624.13,-303.19"/>
<polygon fill="black" stroke="black" points="622.14,-300.3 615.74,-308.75 626.01,-306.14 622.14,-300.3"/>
</g>
<!-- 38 -->
<g id="node39" class="node">
<title>38</title>
<ellipse fill="none" stroke="#a441fd" cx="822.99" cy="-271.32" rx="28.98" ry="37.45"/>
<text text-anchor="middle" x="822.99" y="-282.62" font-family="Times,serif" font-size="14.00">38</text>
<text text-anchor="middle" x="822.99" y="-267.62" font-family="Times,serif" font-size="14.00">5</text>
<text text-anchor="middle" x="822.99" y="-252.62" font-family="Times,serif" font-size="14.00">0.15</text>
</g>
<!-- 38&#45;&gt;5 -->
<g id="edge60" class="edge">
<title>38&#45;&gt;5</title>
<path fill="none" stroke="black" d="M793.89,-270.9C704.84,-269.64 435.98,-265.82 334.76,-264.39"/>
<polygon fill="black" stroke="black" points="334.7,-260.89 324.66,-264.24 334.6,-267.88 334.7,-260.89"/>
</g>
<!-- 38&#45;&gt;16 -->
<g id="edge61" class="edge">
<title>38&#45;&gt;16</title>
<path fill="none" stroke="black" d="M794.43,-278.66C726.97,-296 557.67,-339.52 481.39,-359.13"/>
<polygon fill="black" stroke="black" points="480.51,-355.75 471.69,-361.62 482.25,-362.52 480.51,-355.75"/>
</g>
<!-- 39 -->
<g id="node40" class="node">
<title>39</title>
<ellipse fill="none" stroke="#978752" cx="823.26" cy="-414.05" rx="28.98" ry="37.45"/>
<text text-anchor="middle" x="823.26" y="-425.35" font-family="Times,serif" font-size="14.00">39</text>
<text text-anchor="middle" x="823.26" y="-410.35" font-family="Times,serif" font-size="14.00">5</text>
<text text-anchor="middle" x="823.26" y="-395.35" font-family="Times,serif" font-size="14.00">0.18</text>
</g>
<!-- 39&#45;&gt;15 -->
<g id="edge62" class="edge">
<title>39&#45;&gt;15</title>
<path fill="none" stroke="black" d="M794.05,-416.95C718.01,-424.48 513.82,-444.69 427.65,-453.22"/>
<polygon fill="black" stroke="black" points="427.11,-449.76 417.5,-454.23 427.8,-456.72 427.11,-449.76"/>
</g>
<!-- 39&#45;&gt;24 -->
<g id="edge63" class="edge">
<title>39&#45;&gt;24</title>
<path fill="none" stroke="black" d="M795.09,-403.44C753.06,-387.6 673.9,-357.77 627.08,-340.13"/>
<polygon fill="black" stroke="black" points="628.2,-336.81 617.61,-336.56 625.73,-343.36 628.2,-336.81"/>
</g>
<!-- 40 -->
<g id="node41" class="node">
<title>40</title>
<ellipse fill="none" stroke="#3a513c" cx="889.27" cy="-462.6" rx="28.98" ry="37.45"/>
<text text-anchor="middle" x="889.27" y="-473.9" font-family="Times,serif" font-size="14.00">40</text>
<text text-anchor="middle" x="889.27" y="-458.9" font-family="Times,serif" font-size="14.00">5</text>
<text text-anchor="middle" x="889.27" y="-443.9" font-family="Times,serif" font-size="14.00">0.12</text>
</g>
<!-- 40&#45;&gt;9 -->
<g id="edge64" class="edge">
<title>40&#45;&gt;9</title>
<path fill="none" stroke="black" d="M861.82,-450.1C761.11,-404.26 411.87,-245.27 296.87,-192.91"/>
<polygon fill="black" stroke="black" points="297.97,-189.57 287.42,-188.61 295.07,-195.94 297.97,-189.57"/>
</g>
<!-- 40&#45;&gt;20 -->
<g id="edge65" class="edge">
<title>40&#45;&gt;20</title>
<path fill="none" stroke="black" d="M862.39,-447.94C797.55,-412.6 632.56,-322.64 559.47,-282.79"/>
<polygon fill="black" stroke="black" points="561.07,-279.67 550.62,-277.96 557.72,-285.82 561.07,-279.67"/>
</g>
<!-- 41 -->
<g id="node42" class="node">
<title>41</title>
<ellipse fill="none" stroke="#1853a6" cx="894.65" cy="-120.17" rx="28.98" ry="37.45"/>
<text text-anchor="middle" x="894.65" y="-131.47" font-family="Times,serif" font-size="14.00">41</text>
<text text-anchor="middle" x="894.65" y="-116.47" font-family="Times,serif" font-size="14.00">5</text>
<text text-anchor="middle" x="894.65" y="-101.47" font-family="Times,serif" font-size="14.00">0.20</text>
</g>
<!-- 41&#45;&gt;23 -->
<g id="edge66" class="edge">
<title>41&#45;&gt;23</title>
<path fill="none" stroke="black" d="M872.98,-145.15C812.83,-214.51 643.81,-409.39 576.44,-487.07"/>
<polygon fill="black" stroke="black" points="573.77,-484.8 569.86,-494.65 579.06,-489.39 573.77,-484.8"/>
</g>
<!-- 41&#45;&gt;25 -->
<g id="edge67" class="edge">
<title>41&#45;&gt;25</title>
<path fill="none" stroke="black" d="M865.97,-126.25C813.51,-137.38 702.07,-161.03 642.79,-173.61"/>
<polygon fill="black" stroke="black" points="641.76,-170.25 632.7,-175.75 643.21,-177.1 641.76,-170.25"/>
</g>
<!-- 42 -->
<g id="node43" class="node">
<title>42</title>
<ellipse fill="none" stroke="#a441fd" cx="889.65" cy="-203.16" rx="28.98" ry="37.45"/>
<text text-anchor="middle" x="889.65" y="-214.46" font-family="Times,serif" font-size="14.00">42</text>
<text text-anchor="middle" x="889.65" y="-199.46" font-family="Times,serif" font-size="14.00">6</text>
<text text-anchor="middle" x="889.65" y="-184.46" font-family="Times,serif" font-size="14.00">0.10</text>
</g>
<!-- 42&#45;&gt;10 -->
<g id="edge68" class="edge">
<title>42&#45;&gt;10</title>
<path fill="none" stroke="black" d="M864.16,-221.74C781.77,-281.79 522.64,-470.68 429.77,-538.38"/>
<polygon fill="black" stroke="black" points="427.58,-535.64 421.56,-544.36 431.71,-541.29 427.58,-535.64"/>
</g>
<!-- 42&#45;&gt;22 -->
<g id="edge69" class="edge">
<title>42&#45;&gt;22</title>
<path fill="none" stroke="black" d="M860.55,-201.22C797.58,-197.04 648.62,-187.14 577.23,-182.4"/>
<polygon fill="black" stroke="black" points="577.08,-178.88 566.87,-181.71 576.62,-185.87 577.08,-178.88"/>
</g>
<!-- 43 -->
<g id="node44" class="node">
<title>43</title>
<ellipse fill="none" stroke="#3889a2" cx="894.82" cy="-37.16" rx="28.98" ry="37.45"/>
<text text-anchor="middle" x="894.82" y="-48.46" font-family="Times,serif" font-size="14.00">43</text>
<text text-anchor="middle" x="894.82" y="-33.46" font-family="Times,serif" font-size="14.00">3</text>
<text text-anchor="middle" x="894.82" y="-18.46" font-family="Times,serif" font-size="14.00">0.12</text>
</g>
<!-- 43&#45;&gt;19 -->
<g id="edge70" class="edge">
<title>43&#45;&gt;19</title>
<path fill="none" stroke="black" d="M866.14,-45.3C830.51,-55.41 769.6,-72.7 729.98,-83.95"/>
<polygon fill="black" stroke="black" points="728.82,-80.64 720.15,-86.74 730.73,-87.37 728.82,-80.64"/>
</g>
<!-- 43&#45;&gt;29 -->
<g id="edge71" class="edge">
<title>43&#45;&gt;29</title>
<path fill="none" stroke="black" d="M874.43,-64.23C850.18,-96.45 809.62,-150.29 783,-185.65"/>
<polygon fill="black" stroke="black" points="780.1,-183.68 776.88,-193.77 785.69,-187.89 780.1,-183.68"/>
</g>
<!-- 44 -->
<g id="node45" class="node">
<title>44</title>
<ellipse fill="none" stroke="#978752" cx="889.23" cy="-296.52" rx="28.98" ry="37.45"/>
<text text-anchor="middle" x="889.23" y="-307.82" font-family="Times,serif" font-size="14.00">44</text>
<text text-anchor="middle" x="889.23" y="-292.82" font-family="Times,serif" font-size="14.00">9</text>
<text text-anchor="middle" x="889.23" y="-277.82" font-family="Times,serif" font-size="14.00">0.40</text>
</g>
<!-- 44&#45;&gt;15 -->
<g id="edge72" class="edge">
<title>44&#45;&gt;15</title>
<path fill="none" stroke="black" d="M860.87,-305.61C775.84,-332.88 522.93,-413.97 426.42,-444.92"/>
<polygon fill="black" stroke="black" points="425.23,-441.63 416.78,-448.01 427.37,-448.29 425.23,-441.63"/>
</g>
<!-- 44&#45;&gt;23 -->
<g id="edge73" class="edge">
<title>44&#45;&gt;23</title>
<path fill="none" stroke="black" d="M863.32,-313.47C802.63,-353.18 651.23,-452.22 582.77,-497.01"/>
<polygon fill="black" stroke="black" points="580.52,-494.3 574.07,-502.7 584.36,-500.15 580.52,-494.3"/>
</g>
<!-- 45 -->
<g id="node46" class="node">
<title>45</title>
<ellipse fill="none" stroke="#1853a6" cx="993.18" cy="-194.53" rx="28.98" ry="37.45"/>
<text text-anchor="middle" x="993.18" y="-205.83" font-family="Times,serif" font-size="14.00">45</text>
<text text-anchor="middle" x="993.18" y="-190.83" font-family="Times,serif" font-size="14.00">2</text>
<text text-anchor="middle" x="993.18" y="-175.83" font-family="Times,serif" font-size="14.00">0.15</text>
</g>
<!-- 45&#45;&gt;31 -->
<g id="edge74" class="edge">
<title>45&#45;&gt;31</title>
<path fill="none" stroke="black" d="M969.24,-215.66C915.17,-263.38 783.65,-379.45 722.93,-433.04"/>
<polygon fill="black" stroke="black" points="720.37,-430.63 715.19,-439.87 725.01,-435.88 720.37,-430.63"/>
</g>
<!-- 45&#45;&gt;36 -->
<g id="edge75" class="edge">
<title>45&#45;&gt;36</title>
<path fill="none" stroke="black" d="M977.2,-225.94C946.27,-286.71 878.26,-420.33 843.94,-487.76"/>
<polygon fill="black" stroke="black" points="840.75,-486.32 839.33,-496.82 846.99,-489.5 840.75,-486.32"/>
</g>
<!-- 46 -->
<g id="node47" class="node">
<title>46</title>
<ellipse fill="none" stroke="#3889a2" cx="1007.51" cy="-106.02" rx="28.98" ry="37.45"/>
<text text-anchor="middle" x="1007.51" y="-117.32" font-family="Times,serif" font-size="14.00">46</text>
<text text-anchor="middle" x="1007.51" y="-102.32" font-family="Times,serif" font-size="14.00">2</text>
<text text-anchor="middle" x="1007.51" y="-87.32" font-family="Times,serif" font-size="14.00">0.09</text>
</g>
<!-- 46&#45;&gt;21 -->
<g id="edge76" class="edge">
<title>46&#45;&gt;21</title>
<path fill="none" stroke="black" d="M982.35,-125.6C894.77,-193.74 603.24,-420.57 504.19,-497.63"/>
<polygon fill="black" stroke="black" points="501.77,-495.08 496.03,-503.98 506.07,-500.61 501.77,-495.08"/>
</g>
<!-- 46&#45;&gt;38 -->
<g id="edge77" class="edge">
<title>46&#45;&gt;38</title>
<path fill="none" stroke="black" d="M983.39,-127.63C950.42,-157.16 891.23,-210.19 854.7,-242.91"/>
<polygon fill="black" stroke="black" points="851.94,-240.69 846.83,-249.97 856.61,-245.9 851.94,-240.69"/>
</g>
<!-- 47 -->
<g id="node48" class="node">
<title>47</title>
<ellipse fill="none" stroke="#3a513c" cx="889.27" cy="-379.54" rx="28.98" ry="37.45"/>
<text text-anchor="middle" x="889.27" y="-390.84" font-family="Times,serif" font-size="14.00">47</text>
<text text-anchor="middle" x="889.27" y="-375.84" font-family="Times,serif" font-size="14.00">3</text>
<text text-anchor="middle" x="889.27" y="-360.84" font-family="Times,serif" font-size="14.00">0.15</text>
</g>
<!-- 47&#45;&gt;20 -->
<g id="edge78" class="edge">
<title>47&#45;&gt;20</title>
<path fill="none" stroke="black" d="M860.89,-370.52C795.75,-349.8 635.52,-298.84 561.86,-275.42"/>
<polygon fill="black" stroke="black" points="562.65,-272 552.06,-272.3 560.53,-278.67 562.65,-272"/>
</g>
<!-- 47&#45;&gt;25 -->
<g id="edge79" class="edge">
<title>47&#45;&gt;25</title>
<path fill="none" stroke="black" d="M863.68,-361.83C812.14,-326.14 695.78,-245.57 637.87,-205.47"/>
<polygon fill="black" stroke="black" points="639.65,-202.44 629.43,-199.63 635.66,-208.2 639.65,-202.44"/>
</g>
<!-- 48 -->
<g id="node49" class="node">
<title>48</title>
<ellipse fill="none" stroke="#a441fd" cx="955.69" cy="-278.71" rx="28.98" ry="37.45"/>
<text text-anchor="middle" x="955.69" y="-290.01" font-family="Times,serif" font-size="14.00">48</text>
<text text-anchor="middle" x="955.69" y="-275.01" font-family="Times,serif" font-size="14.00">4</text>
<text text-anchor="middle" x="955.69" y="-260.01" font-family="Times,serif" font-size="14.00">0.11</text>
</g>
<!-- 48&#45;&gt;28 -->
<g id="edge80" class="edge">
<title>48&#45;&gt;28</title>
<path fill="none" stroke="black" d="M927.5,-268.83C875.84,-250.72 765.97,-212.2 707.8,-191.8"/>
<polygon fill="black" stroke="black" points="708.84,-188.46 698.25,-188.45 706.53,-195.06 708.84,-188.46"/>
</g>
<!-- 48&#45;&gt;32 -->
<g id="edge81" class="edge">
<title>48&#45;&gt;32</title>
<path fill="none" stroke="black" d="M927.16,-286.62C891.13,-296.6 828.99,-313.81 788.84,-324.93"/>
<polygon fill="black" stroke="black" points="787.84,-321.58 779.13,-327.62 789.7,-328.32 787.84,-321.58"/>
</g>
<!-- 49 -->
<g id="node50" class="node">
<title>49</title>
<ellipse fill="none" stroke="#978752" cx="983.18" cy="-370.69" rx="28.98" ry="37.45"/>
<text text-anchor="middle" x="983.18" y="-381.99" font-family="Times,serif" font-size="14.00">49</text>
<text text-anchor="middle" x="983.18" y="-366.99" font-family="Times,serif" font-size="14.00">2</text>
<text text-anchor="middle" x="983.18" y="-351.99" font-family="Times,serif" font-size="14.00">0.12</text>
</g>
<!-- 49&#45;&gt;39 -->
<g id="edge82" class="edge">
<title>49&#45;&gt;39</title>
<path fill="none" stroke="black" d="M954.59,-378.44C928.63,-385.48 890.15,-395.92 861.54,-403.67"/>
<polygon fill="black" stroke="black" points="860.61,-400.3 851.87,-406.3 862.44,-407.06 860.61,-400.3"/>
</g>
<!-- 49&#45;&gt;43 -->
<g id="edge83" class="edge">
<title>49&#45;&gt;43</title>
<path fill="none" stroke="black" d="M973.72,-335C957.57,-274.01 924.68,-149.87 906.89,-82.72"/>
<polygon fill="black" stroke="black" points="910.22,-81.62 904.28,-72.85 903.45,-83.41 910.22,-81.62"/>
</g>
<!-- 50 -->
<g id="node51" class="node">
<title>50</title>
<ellipse fill="none" stroke="#3a513c" cx="955.28" cy="-461.98" rx="28.98" ry="37.45"/>
<text text-anchor="middle" x="955.28" y="-473.28" font-family="Times,serif" font-size="14.00">50</text>
<text text-anchor="middle" x="955.28" y="-458.28" font-family="Times,serif" font-size="14.00">1</text>
<text text-anchor="middle" x="955.28" y="-443.28" font-family="Times,serif" font-size="14.00">0.03</text>
</g>
<!-- 50&#45;&gt;28 -->
<g id="edge84" class="edge">
<title>50&#45;&gt;28</title>
<path fill="none" stroke="black" d="M931.92,-438.78C880.57,-387.78 757.87,-265.92 700.45,-208.89"/>
<polygon fill="black" stroke="black" points="702.69,-206.18 693.13,-201.62 697.76,-211.15 702.69,-206.18"/>
</g>
<!-- 50&#45;&gt;29 -->
<g id="edge85" class="edge">
<title>50&#45;&gt;29</title>
<path fill="none" stroke="black" d="M934.02,-436.15C897.9,-392.27 824.56,-303.18 784.42,-254.42"/>
<polygon fill="black" stroke="black" points="787.1,-252.16 778.04,-246.66 781.69,-256.61 787.1,-252.16"/>
</g>
<!-- 51 -->
<g id="node52" class="node">
<title>51</title>
<ellipse fill="none" stroke="#3a513c" cx="1021.28" cy="-526.88" rx="28.98" ry="37.45"/>
<text text-anchor="middle" x="1021.28" y="-538.18" font-family="Times,serif" font-size="14.00">51</text>
<text text-anchor="middle" x="1021.28" y="-523.18" font-family="Times,serif" font-size="14.00">2</text>
<text text-anchor="middle" x="1021.28" y="-508.18" font-family="Times,serif" font-size="14.00">0.06</text>
</g>
<!-- 51&#45;&gt;38 -->
<g id="edge86" class="edge">
<title>51&#45;&gt;38</title>
<path fill="none" stroke="black" d="M1000.44,-500.02C964.27,-453.4 889.93,-357.59 849.91,-306.01"/>
<polygon fill="black" stroke="black" points="852.45,-303.58 843.56,-297.82 846.92,-307.87 852.45,-303.58"/>
</g>
<!-- 51&#45;&gt;39 -->
<g id="edge87" class="edge">
<title>51&#45;&gt;39</title>
<path fill="none" stroke="black" d="M994.58,-511.67C959.49,-491.68 897.77,-456.51 858.77,-434.29"/>
<polygon fill="black" stroke="black" points="860.28,-431.12 849.86,-429.21 856.82,-437.2 860.28,-431.12"/>
</g>
<!-- 52 -->
<g id="node53" class="node">
<title>52</title>
<ellipse fill="none" stroke="#a441fd" cx="1049.19" cy="-331.67" rx="28.98" ry="37.45"/>
<text text-anchor="middle" x="1049.19" y="-342.97" font-family="Times,serif" font-size="14.00">52</text>
<text text-anchor="middle" x="1049.19" y="-327.97" font-family="Times,serif" font-size="14.00">5</text>
<text text-anchor="middle" x="1049.19" y="-312.97" font-family="Times,serif" font-size="14.00">0.20</text>
</g>
<!-- 52&#45;&gt;44 -->
<g id="edge88" class="edge">
<title>52&#45;&gt;44</title>
<path fill="none" stroke="black" d="M1020.59,-325.38C994.74,-319.7 956.47,-311.29 927.9,-305.01"/>
<polygon fill="black" stroke="black" points="928.37,-301.53 917.85,-302.81 926.87,-308.37 928.37,-301.53"/>
</g>
<!-- 53 -->
<g id="node54" class="node">
<title>53</title>
<ellipse fill="none" stroke="#978752" cx="1115.27" cy="-470.04" rx="28.98" ry="37.45"/>
<text text-anchor="middle" x="1115.27" y="-481.34" font-family="Times,serif" font-size="14.00">53</text>
<text text-anchor="middle" x="1115.27" y="-466.34" font-family="Times,serif" font-size="14.00">2</text>
<text text-anchor="middle" x="1115.27" y="-451.34" font-family="Times,serif" font-size="14.00">0.12</text>
</g>
<!-- 53&#45;&gt;21 -->
<g id="edge89" class="edge">
<title>53&#45;&gt;21</title>
<path fill="none" stroke="black" d="M1086.33,-472.44C982.57,-481.05 629.08,-510.39 510.25,-520.25"/>
<polygon fill="black" stroke="black" points="509.82,-516.78 500.15,-521.09 510.4,-523.75 509.82,-516.78"/>
</g>
<!-- 53&#45;&gt;41 -->
<g id="edge90" class="edge">
<title>53&#45;&gt;41</title>
<path fill="none" stroke="black" d="M1096.84,-440.81C1057.01,-377.65 962.96,-228.49 918.6,-158.14"/>
<polygon fill="black" stroke="black" points="921.48,-156.15 913.19,-149.56 915.56,-159.88 921.48,-156.15"/>
</g>
<!-- 54 -->
<g id="node55" class="node">
<title>54</title>
<ellipse fill="none" stroke="#3a513c" cx="1087.66" cy="-588.59" rx="28.98" ry="37.45"/>
<text text-anchor="middle" x="1087.66" y="-599.89" font-family="Times,serif" font-size="14.00">54</text>
<text text-anchor="middle" x="1087.66" y="-584.89" font-family="Times,serif" font-size="14.00">3</text>
<text text-anchor="middle" x="1087.66" y="-569.89" font-family="Times,serif" font-size="14.00">0.04</text>
</g>
<!-- 54&#45;&gt;34 -->
<g id="edge91" class="edge">
<title>54&#45;&gt;34</title>
<path fill="none" stroke="black" d="M1059.49,-579.32C1000.11,-559.78 862.07,-514.35 795.07,-492.3"/>
<polygon fill="black" stroke="black" points="795.92,-488.89 785.33,-489.09 793.73,-495.54 795.92,-488.89"/>
</g>
<!-- 54&#45;&gt;42 -->
<g id="edge92" class="edge">
<title>54&#45;&gt;42</title>
<path fill="none" stroke="black" d="M1071.46,-557.05C1035.69,-487.42 950.01,-320.67 910.39,-243.54"/>
<polygon fill="black" stroke="black" points="913.48,-241.89 905.8,-234.59 907.25,-245.09 913.48,-241.89"/>
</g>
<!-- 55 -->
<g id="node56" class="node">
<title>55</title>
<ellipse fill="none" stroke="#1853a6" cx="1059.22" cy="-189.51" rx="28.98" ry="37.45"/>
<text text-anchor="middle" x="1059.22" y="-200.81" font-family="Times,serif" font-size="14.00">55</text>
<text text-anchor="middle" x="1059.22" y="-185.81" font-family="Times,serif" font-size="14.00">2</text>
<text text-anchor="middle" x="1059.22" y="-170.81" font-family="Times,serif" font-size="14.00">0.06</text>
</g>
<!-- 55&#45;&gt;40 -->
<g id="edge93" class="edge">
<title>55&#45;&gt;40</title>
<path fill="none" stroke="black" d="M1041.04,-218.73C1010.13,-268.39 947.38,-369.22 913.04,-424.4"/>
<polygon fill="black" stroke="black" points="909.89,-422.83 907.58,-433.17 915.84,-426.53 909.89,-422.83"/>
</g>
<!-- 55&#45;&gt;42 -->
<g id="edge94" class="edge">
<title>55&#45;&gt;42</title>
<path fill="none" stroke="black" d="M1030.07,-191.85C1002.08,-194.11 959.61,-197.53 928.7,-200.01"/>
<polygon fill="black" stroke="black" points="928.39,-196.53 918.7,-200.82 928.95,-203.5 928.39,-196.53"/>
</g>
<!-- 56 -->
<g id="node57" class="node">
<title>56</title>
<ellipse fill="none" stroke="#3a513c" cx="1181.37" cy="-572.62" rx="28.98" ry="37.45"/>
<text text-anchor="middle" x="1181.37" y="-583.92" font-family="Times,serif" font-size="14.00">56</text>
<text text-anchor="middle" x="1181.37" y="-568.92" font-family="Times,serif" font-size="14.00">3</text>
<text text-anchor="middle" x="1181.37" y="-553.92" font-family="Times,serif" font-size="14.00">0.17</text>
</g>
<!-- 56&#45;&gt;34 -->
<g id="edge95" class="edge">
<title>56&#45;&gt;34</title>
<path fill="none" stroke="black" d="M1152.55,-566.32C1078.27,-550.07 880.24,-506.75 796.02,-488.33"/>
<polygon fill="black" stroke="black" points="796.6,-484.87 786.09,-486.16 795.11,-491.71 796.6,-484.87"/>
</g>
<!-- 56&#45;&gt;52 -->
<g id="edge96" class="edge">
<title>56&#45;&gt;52</title>
<path fill="none" stroke="black" d="M1164.36,-541.61C1140.52,-498.15 1097.15,-419.09 1070.97,-371.37"/>
<polygon fill="black" stroke="black" points="1074.01,-369.64 1066.13,-362.55 1067.88,-373.01 1074.01,-369.64"/>
</g>
<!-- 57 -->
<g id="node58" class="node">
<title>57</title>
<ellipse fill="none" stroke="#3889a2" cx="1085.19" cy="-103.45" rx="28.98" ry="37.45"/>
<text text-anchor="middle" x="1085.19" y="-114.75" font-family="Times,serif" font-size="14.00">57</text>
<text text-anchor="middle" x="1085.19" y="-99.75" font-family="Times,serif" font-size="14.00">1</text>
<text text-anchor="middle" x="1085.19" y="-84.75" font-family="Times,serif" font-size="14.00">0.07</text>
</g>
<!-- 57&#45;&gt;27 -->
<g id="edge97" class="edge">
<title>57&#45;&gt;27</title>
<path fill="none" stroke="black" d="M1058.19,-117.67C987.17,-155.06 795.15,-256.16 714.69,-298.52"/>
<polygon fill="black" stroke="black" points="712.67,-295.64 705.45,-303.39 715.93,-301.83 712.67,-295.64"/>
</g>
<!-- 57&#45;&gt;28 -->
<g id="edge98" class="edge">
<title>57&#45;&gt;28</title>
<path fill="none" stroke="black" d="M1056.31,-108.67C983.36,-121.85 791.59,-156.5 708.81,-171.45"/>
<polygon fill="black" stroke="black" points="708.03,-168.04 698.81,-173.26 709.27,-174.93 708.03,-168.04"/>
</g>
<!-- 58 -->
<g id="node59" class="node">
<title>58</title>
<ellipse fill="none" stroke="#a441fd" cx="1115.23" cy="-352.21" rx="28.98" ry="37.45"/>
<text text-anchor="middle" x="1115.23" y="-363.51" font-family="Times,serif" font-size="14.00">58</text>
<text text-anchor="middle" x="1115.23" y="-348.51" font-family="Times,serif" font-size="14.00">2</text>
<text text-anchor="middle" x="1115.23" y="-333.51" font-family="Times,serif" font-size="14.00">0.15</text>
</g>
<!-- 58&#45;&gt;44 -->
<g id="edge99" class="edge">
<title>58&#45;&gt;44</title>
<path fill="none" stroke="black" d="M1086.61,-345.15C1046.39,-335.24 973.03,-317.17 927.97,-306.06"/>
<polygon fill="black" stroke="black" points="928.53,-302.6 917.98,-303.6 926.85,-309.39 928.53,-302.6"/>
</g>
<!-- 58&#45;&gt;47 -->
<g id="edge100" class="edge">
<title>58&#45;&gt;47</title>
<path fill="none" stroke="black" d="M1086.15,-355.73C1045.9,-360.59 973.1,-369.4 928.19,-374.83"/>
<polygon fill="black" stroke="black" points="927.74,-371.36 918.23,-376.04 928.58,-378.31 927.74,-371.36"/>
</g>
<!-- 59 -->
<g id="node60" class="node">
<title>59</title>
<ellipse fill="none" stroke="#1853a6" cx="1145.17" cy="-220.93" rx="28.98" ry="37.45"/>
<text text-anchor="middle" x="1145.17" y="-232.23" font-family="Times,serif" font-size="14.00">59</text>
<text text-anchor="middle" x="1145.17" y="-217.23" font-family="Times,serif" font-size="14.00">2</text>
<text text-anchor="middle" x="1145.17" y="-202.23" font-family="Times,serif" font-size="14.00">0.05</text>
</g>
<!-- 59&#45;&gt;36 -->
<g id="edge101" class="edge">
<title>59&#45;&gt;36</title>
<path fill="none" stroke="black" d="M1121.76,-243.29C1064.62,-297.87 918.02,-437.89 853.98,-499.06"/>
<polygon fill="black" stroke="black" points="851.4,-496.68 846.59,-506.12 856.24,-501.74 851.4,-496.68"/>
</g>
<!-- 59&#45;&gt;37 -->
<g id="edge102" class="edge">
<title>59&#45;&gt;37</title>
<path fill="none" stroke="black" d="M1116.35,-216.44C1058.42,-207.39 927.78,-187.01 862.42,-176.81"/>
<polygon fill="black" stroke="black" points="862.93,-173.34 852.51,-175.26 861.85,-180.26 862.93,-173.34"/>
</g>
<!-- 60 -->
<g id="node61" class="node">
<title>60</title>
<ellipse fill="none" stroke="#3889a2" cx="1151.21" cy="-137.9" rx="28.98" ry="37.45"/>
<text text-anchor="middle" x="1151.21" y="-149.2" font-family="Times,serif" font-size="14.00">60</text>
<text text-anchor="middle" x="1151.21" y="-134.2" font-family="Times,serif" font-size="14.00">2</text>
<text text-anchor="middle" x="1151.21" y="-119.2" font-family="Times,serif" font-size="14.00">0.06</text>
</g>
<!-- 60&#45;&gt;34 -->
<g id="edge103" class="edge">
<title>60&#45;&gt;34</title>
<path fill="none" stroke="black" d="M1126.86,-159.03C1058.71,-218.18 866.04,-385.4 789.33,-451.99"/>
<polygon fill="black" stroke="black" points="786.67,-449.65 781.41,-458.85 791.26,-454.94 786.67,-449.65"/>
</g>
<!-- 60&#45;&gt;40 -->
<g id="edge104" class="edge">
<title>60&#45;&gt;40</title>
<path fill="none" stroke="black" d="M1130.21,-163.92C1083.18,-222.23 969.36,-363.31 916.76,-428.52"/>
<polygon fill="black" stroke="black" points="913.92,-426.47 910.36,-436.45 919.36,-430.87 913.92,-426.47"/>
</g>
<!-- 61 -->
<g id="node62" class="node">
<title>61</title>
<ellipse fill="none" stroke="#978752" cx="1181.31" cy="-432.61" rx="28.98" ry="37.45"/>
<text text-anchor="middle" x="1181.31" y="-443.91" font-family="Times,serif" font-size="14.00">61</text>
<text text-anchor="middle" x="1181.31" y="-428.91" font-family="Times,serif" font-size="14.00">1</text>
<text text-anchor="middle" x="1181.31" y="-413.91" font-family="Times,serif" font-size="14.00">0.02</text>
</g>
<!-- 61&#45;&gt;34 -->
<g id="edge105" class="edge">
<title>61&#45;&gt;34</title>
<path fill="none" stroke="black" d="M1152.16,-435.85C1077.77,-444.14 880.85,-466.07 796.49,-475.47"/>
<polygon fill="black" stroke="black" points="795.85,-472.02 786.3,-476.61 796.63,-478.98 795.85,-472.02"/>
</g>
<!-- 61&#45;&gt;48 -->
<g id="edge106" class="edge">
<title>61&#45;&gt;48</title>
<path fill="none" stroke="black" d="M1155.43,-414.95C1114.65,-387.14 1035.42,-333.1 989.96,-302.09"/>
<polygon fill="black" stroke="black" points="991.85,-299.14 981.61,-296.4 987.9,-304.92 991.85,-299.14"/>
</g>
<!-- 62 -->
<g id="node63" class="node">
<title>62</title>
<ellipse fill="none" stroke="#a441fd" cx="1181.26" cy="-336.36" rx="28.98" ry="37.45"/>
<text text-anchor="middle" x="1181.26" y="-347.66" font-family="Times,serif" font-size="14.00">62</text>
<text text-anchor="middle" x="1181.26" y="-332.66" font-family="Times,serif" font-size="14.00">1</text>
<text text-anchor="middle" x="1181.26" y="-317.66" font-family="Times,serif" font-size="14.00">0.03</text>
</g>
<!-- 62&#45;&gt;33 -->
<g id="edge107" class="edge">
<title>62&#45;&gt;33</title>
<path fill="none" stroke="black" d="M1154.44,-321.35C1080.9,-280.21 876.05,-165.61 793.15,-119.24"/>
<polygon fill="black" stroke="black" points="794.79,-116.14 784.35,-114.31 791.37,-122.25 794.79,-116.14"/>
</g>
<!-- 62&#45;&gt;48 -->
<g id="edge108" class="edge">
<title>62&#45;&gt;48</title>
<path fill="none" stroke="black" d="M1152.69,-329.06C1112.54,-318.8 1039.33,-300.09 994.35,-288.59"/>
<polygon fill="black" stroke="black" points="994.94,-285.13 984.38,-286.05 993.2,-291.91 994.94,-285.13"/>
</g>
<!-- 63 -->
<g id="node64" class="node">
<title>63</title>
<ellipse fill="none" stroke="#1853a6" cx="1211.16" cy="-253.33" rx="28.98" ry="37.45"/>
<text text-anchor="middle" x="1211.16" y="-264.63" font-family="Times,serif" font-size="14.00">63</text>
<text text-anchor="middle" x="1211.16" y="-249.63" font-family="Times,serif" font-size="14.00">1</text>
<text text-anchor="middle" x="1211.16" y="-234.63" font-family="Times,serif" font-size="14.00">0.05</text>
</g>
<!-- 63&#45;&gt;41 -->
<g id="edge109" class="edge">
<title>63&#45;&gt;41</title>
<path fill="none" stroke="black" d="M1183.35,-241.63C1126.24,-217.61 995.76,-162.7 931.62,-135.72"/>
<polygon fill="black" stroke="black" points="932.86,-132.44 922.29,-131.79 930.15,-138.9 932.86,-132.44"/>
</g>
<!-- 63&#45;&gt;44 -->
<g id="edge110" class="edge">
<title>63&#45;&gt;44</title>
<path fill="none" stroke="black" d="M1182.31,-257.2C1124.3,-264.99 993.5,-282.53 928.06,-291.31"/>
<polygon fill="black" stroke="black" points="927.58,-287.84 918.14,-292.64 928.51,-294.78 927.58,-287.84"/>
</g>
<!-- 64 -->
<g id="node65" class="node">
<title>64</title>
<ellipse fill="none" stroke="#978752" cx="1247.36" cy="-409.58" rx="28.98" ry="37.45"/>
<text text-anchor="middle" x="1247.36" y="-420.88" font-family="Times,serif" font-size="14.00">64</text>
<text text-anchor="middle" x="1247.36" y="-405.88" font-family="Times,serif" font-size="14.00">1</text>
<text text-anchor="middle" x="1247.36" y="-390.88" font-family="Times,serif" font-size="14.00">0.03</text>
</g>
<!-- 64&#45;&gt;41 -->
<g id="edge111" class="edge">
<title>64&#45;&gt;41</title>
<path fill="none" stroke="black" d="M1222.84,-389.46C1160.84,-338.59 997.77,-204.78 927.57,-147.18"/>
<polygon fill="black" stroke="black" points="929.43,-144.18 919.48,-140.54 924.99,-149.59 929.43,-144.18"/>
</g>
<!-- 65 -->
<g id="node66" class="node">
<title>65</title>
<ellipse fill="none" stroke="#a441fd" cx="1307.19" cy="-320.85" rx="28.98" ry="37.45"/>
<text text-anchor="middle" x="1307.19" y="-332.15" font-family="Times,serif" font-size="14.00">65</text>
<text text-anchor="middle" x="1307.19" y="-317.15" font-family="Times,serif" font-size="14.00">1</text>
<text text-anchor="middle" x="1307.19" y="-302.15" font-family="Times,serif" font-size="14.00">0.05</text>
</g>
<!-- 65&#45;&gt;56 -->
<g id="edge112" class="edge">
<title>65&#45;&gt;56</title>
<path fill="none" stroke="black" d="M1291.38,-352.49C1268.69,-397.9 1226.86,-481.59 1201.83,-531.68"/>
<polygon fill="black" stroke="black" points="1198.55,-530.41 1197.21,-540.92 1204.81,-533.54 1198.55,-530.41"/>
</g>
<!-- 65&#45;&gt;59 -->
<g id="edge113" class="edge">
<title>65&#45;&gt;59</title>
<path fill="none" stroke="black" d="M1280.8,-304.58C1253.38,-287.67 1210.33,-261.12 1180.1,-242.48"/>
<polygon fill="black" stroke="black" points="1181.9,-239.47 1171.55,-237.2 1178.22,-245.43 1181.9,-239.47"/>
</g>
<!-- 66 -->
<g id="node67" class="node">
<title>66</title>
<ellipse fill="none" stroke="#3a513c" cx="1247.41" cy="-495.06" rx="28.98" ry="37.45"/>
<text text-anchor="middle" x="1247.41" y="-506.36" font-family="Times,serif" font-size="14.00">66</text>
<text text-anchor="middle" x="1247.41" y="-491.36" font-family="Times,serif" font-size="14.00">1</text>
<text text-anchor="middle" x="1247.41" y="-476.36" font-family="Times,serif" font-size="14.00">0.12</text>
</g>
<!-- 66&#45;&gt;33 -->
<g id="edge114" class="edge">
<title>66&#45;&gt;33</title>
<path fill="none" stroke="black" d="M1222.79,-475.16C1141.54,-409.52 881.93,-199.78 790.16,-125.64"/>
<polygon fill="black" stroke="black" points="792.3,-122.87 782.32,-119.31 787.9,-128.32 792.3,-122.87"/>
</g>
<!-- 66&#45;&gt;49 -->
<g id="edge115" class="edge">
<title>66&#45;&gt;49</title>
<path fill="none" stroke="black" d="M1220.13,-482.22C1172.36,-459.73 1073.57,-413.24 1019.87,-387.96"/>
<polygon fill="black" stroke="black" points="1021.25,-384.74 1010.71,-383.65 1018.27,-391.07 1021.25,-384.74"/>
</g>
<!-- 67 -->
<g id="node68" class="node">
<title>67</title>
<ellipse fill="none" stroke="#3889a2" cx="1276.49" cy="-152.34" rx="28.98" ry="37.45"/>
<text text-anchor="middle" x="1276.49" y="-163.64" font-family="Times,serif" font-size="14.00">67</text>
<text text-anchor="middle" x="1276.49" y="-148.64" font-family="Times,serif" font-size="14.00">1</text>
<text text-anchor="middle" x="1276.49" y="-133.64" font-family="Times,serif" font-size="14.00">0.09</text>
</g>
<!-- 67&#45;&gt;37 -->
<g id="edge116" class="edge">
<title>67&#45;&gt;37</title>
<path fill="none" stroke="black" d="M1247.47,-153.52C1168.97,-156.71 952.31,-165.52 862.96,-169.16"/>
<polygon fill="black" stroke="black" points="862.56,-165.67 852.71,-169.57 862.85,-172.66 862.56,-165.67"/>
</g>
<!-- 67&#45;&gt;46 -->
<g id="edge117" class="edge">
<title>67&#45;&gt;46</title>
<path fill="none" stroke="black" d="M1247.7,-147.38C1199.19,-139.03 1101.12,-122.14 1046.5,-112.73"/>
<polygon fill="black" stroke="black" points="1046.95,-109.26 1036.5,-111.01 1045.76,-116.16 1046.95,-109.26"/>
</g>
<!-- 68 -->
<g id="node69" class="node">
<title>68</title>
<ellipse fill="none" stroke="#3a513c" cx="1313.68" cy="-529.84" rx="28.98" ry="37.45"/>
<text text-anchor="middle" x="1313.68" y="-541.14" font-family="Times,serif" font-size="14.00">68</text>
<text text-anchor="middle" x="1313.68" y="-526.14" font-family="Times,serif" font-size="14.00">1</text>
<text text-anchor="middle" x="1313.68" y="-511.14" font-family="Times,serif" font-size="14.00">0.01</text>
</g>
<!-- 68&#45;&gt;37 -->
<g id="edge118" class="edge">
<title>68&#45;&gt;37</title>
<path fill="none" stroke="black" d="M1288.36,-511.29C1206.64,-451.4 949.79,-263.19 857.28,-195.4"/>
<polygon fill="black" stroke="black" points="859.24,-192.5 849.1,-189.41 855.1,-198.14 859.24,-192.5"/>
</g>
<!-- 68&#45;&gt;54 -->
<g id="edge119" class="edge">
<title>68&#45;&gt;54</title>
<path fill="none" stroke="black" d="M1285.05,-537.28C1244.74,-547.76 1171.16,-566.89 1126.11,-578.6"/>
<polygon fill="black" stroke="black" points="1125.21,-575.22 1116.41,-581.12 1126.97,-581.99 1125.21,-575.22"/>
</g>
<!-- 69 -->
<g id="node70" class="node">
<title>69</title>
<ellipse fill="none" stroke="#1853a6" cx="1277.46" cy="-235.3" rx="28.98" ry="37.45"/>
<text text-anchor="middle" x="1277.46" y="-246.6" font-family="Times,serif" font-size="14.00">69</text>
<text text-anchor="middle" x="1277.46" y="-231.6" font-family="Times,serif" font-size="14.00">1</text>
<text text-anchor="middle" x="1277.46" y="-216.6" font-family="Times,serif" font-size="14.00">0.03</text>
</g>
<!-- 69&#45;&gt;52 -->
<g id="edge120" class="edge">
<title>69&#45;&gt;52</title>
<path fill="none" stroke="black" d="M1249.47,-247.12C1208.45,-264.43 1131.96,-296.72 1086.3,-316"/>
<polygon fill="black" stroke="black" points="1084.9,-312.79 1077.05,-319.91 1087.63,-319.24 1084.9,-312.79"/>
</g>
<!-- 69&#45;&gt;54 -->
<g id="edge121" class="edge">
<title>69&#45;&gt;54</title>
<path fill="none" stroke="black" d="M1260.78,-266.35C1226.33,-330.48 1147.32,-477.54 1109.12,-548.64"/>
<polygon fill="black" stroke="black" points="1105.88,-547.28 1104.23,-557.75 1112.05,-550.59 1105.88,-547.28"/>
</g>
<!-- 70 -->
<g id="node71" class="node">
<title>70</title>
<ellipse fill="none" stroke="#978752" cx="1313.41" cy="-428.1" rx="28.98" ry="37.45"/>
<text text-anchor="middle" x="1313.41" y="-439.4" font-family="Times,serif" font-size="14.00">70</text>
<text text-anchor="middle" x="1313.41" y="-424.4" font-family="Times,serif" font-size="14.00">1</text>
<text text-anchor="middle" x="1313.41" y="-409.4" font-family="Times,serif" font-size="14.00">0.06</text>
</g>
<!-- 70&#45;&gt;48 -->
<g id="edge122" class="edge">
<title>70&#45;&gt;48</title>
<path fill="none" stroke="black" d="M1285.64,-416.51C1221.99,-389.92 1065.5,-324.57 993.3,-294.42"/>
<polygon fill="black" stroke="black" points="994.27,-291.03 983.69,-290.41 991.57,-297.49 994.27,-291.03"/>
</g>
<!-- 70&#45;&gt;55 -->
<g id="edge123" class="edge">
<title>70&#45;&gt;55</title>
<path fill="none" stroke="black" d="M1289.5,-405.66C1243.3,-362.29 1141.81,-267.03 1090.4,-218.77"/>
<polygon fill="black" stroke="black" points="1092.58,-216.01 1082.89,-211.72 1087.78,-221.12 1092.58,-216.01"/>
</g>
<!-- 71 -->
<g id="node72" class="node">
<title>71</title>
<ellipse fill="none" stroke="#3889a2" cx="1342.51" cy="-142.68" rx="28.98" ry="37.45"/>
<text text-anchor="middle" x="1342.51" y="-153.98" font-family="Times,serif" font-size="14.00">71</text>
<text text-anchor="middle" x="1342.51" y="-138.98" font-family="Times,serif" font-size="14.00">1</text>
<text text-anchor="middle" x="1342.51" y="-123.98" font-family="Times,serif" font-size="14.00">0.12</text>
</g>
<!-- 71&#45;&gt;53 -->
<g id="edge124" class="edge">
<title>71&#45;&gt;53</title>
<path fill="none" stroke="black" d="M1323.14,-170.59C1282.15,-229.63 1186.68,-367.17 1140.79,-433.28"/>
<polygon fill="black" stroke="black" points="1137.74,-431.52 1134.92,-441.74 1143.49,-435.52 1137.74,-431.52"/>
</g>
<!-- 71&#45;&gt;56 -->
<g id="edge125" class="edge">
<title>71&#45;&gt;56</title>
<path fill="none" stroke="black" d="M1329.87,-176.42C1300.9,-253.71 1229.75,-443.53 1197.6,-529.3"/>
<polygon fill="black" stroke="black" points="1194.3,-528.15 1194.06,-538.74 1200.85,-530.61 1194.3,-528.15"/>
</g>
<!-- 72 -->
<g id="node73" class="node">
<title>72</title>
<ellipse fill="none" stroke="#978752" cx="1376.15" cy="-345.09" rx="28.98" ry="37.45"/>
<text text-anchor="middle" x="1376.15" y="-356.39" font-family="Times,serif" font-size="14.00">72</text>
<text text-anchor="middle" x="1376.15" y="-341.39" font-family="Times,serif" font-size="14.00">1</text>
<text text-anchor="middle" x="1376.15" y="-326.39" font-family="Times,serif" font-size="14.00">0.06</text>
</g>
<!-- 72&#45;&gt;51 -->
<g id="edge126" class="edge">
<title>72&#45;&gt;51</title>
<path fill="none" stroke="black" d="M1349.19,-358.9C1286.18,-391.18 1129.26,-471.57 1057.79,-508.18"/>
<polygon fill="black" stroke="black" points="1056,-505.17 1048.69,-512.84 1059.19,-511.4 1056,-505.17"/>
</g>
<!-- 72&#45;&gt;60 -->
<g id="edge127" class="edge">
<title>72&#45;&gt;60</title>
<path fill="none" stroke="black" d="M1352.5,-323.31C1311.66,-285.69 1227.92,-208.56 1182.38,-166.61"/>
<polygon fill="black" stroke="black" points="1184.6,-163.9 1174.87,-159.7 1179.86,-169.05 1184.6,-163.9"/>
</g>
<!-- 73 -->
<g id="node74" class="node">
<title>73</title>
<ellipse fill="none" stroke="#3a513c" cx="1379.74" cy="-472.29" rx="28.98" ry="37.45"/>
<text text-anchor="middle" x="1379.74" y="-483.59" font-family="Times,serif" font-size="14.00">73</text>
<text text-anchor="middle" x="1379.74" y="-468.59" font-family="Times,serif" font-size="14.00">1</text>
<text text-anchor="middle" x="1379.74" y="-453.59" font-family="Times,serif" font-size="14.00">0.15</text>
</g>
<!-- 73&#45;&gt;45 -->
<g id="edge128" class="edge">
<title>73&#45;&gt;45</title>
<path fill="none" stroke="black" d="M1354.37,-454.06C1286.93,-405.6 1103.13,-273.53 1026.95,-218.8"/>
<polygon fill="black" stroke="black" points="1028.8,-215.81 1018.64,-212.82 1024.72,-221.5 1028.8,-215.81"/>
</g>
<!-- 73&#45;&gt;58 -->
<g id="edge129" class="edge">
<title>73&#45;&gt;58</title>
<path fill="none" stroke="black" d="M1351.93,-459.66C1303.88,-437.85 1205.34,-393.11 1151.8,-368.81"/>
<polygon fill="black" stroke="black" points="1153.22,-365.61 1142.66,-364.66 1150.32,-371.98 1153.22,-365.61"/>
</g>
</g>
</svg>
